009-2,0,0,0,0|monster|Cobra da Caverna|1021,10,0ms,0ms,Mob009-2::On1021
009-2,0,0,0,0|monster|Morcego|1017,10,0ms,0ms,Mob009-2::On1017


009-2,0,0,0|script|Mob009-2|32767
{
    end;

On1017:
    set @mobID, 1017;
    callfunc "MobPoints";
    end;

On1021:
    set @mobID, 1021;
    callfunc "MobPoints";
    end;
}
