// This file is generated automatically. All manually added changes will be removed when running the Converter.
// Planalto de Neve warps

010-4,36,38|warp|-1,-1,010-4,26,24
010-4,26,22|warp|-1,-1,010-4,36,40
010-4,179,69|warp|-1,1,010,21,69
010-4,156,42|warp|-1,-1,010-4,152,66
010-4,152,64|warp|-1,-1,010-4,156,44
010-4,153,42|warp|-1,-1,010-4,68,138
010-4,68,136|warp|-1,-1,010-4,153,44
010-4,95,131|warp|-1,-1,010-4,77,114
010-4,77,112|warp|-1,-1,010-4,95,133
010-4,103,79|warp|-1,-1,010-4,36,24
010-4,36,22|warp|-1,-1,010-4,103,81
010-4,94,34|warp|-1,-1,010-4,114,85
010-4,114,83|warp|-1,-1,010-4,94,36
010-4,43,68|warp|-1,-1,010-4,67,46
010-4,67,44|warp|-1,-1,010-4,43,70
010-4,58,81|warp|-1,-1,010-4,31,53
010-4,31,51|warp|-1,-1,010-4,58,83
010-4,91,89|warp|-1,-1,010-4,153,32
010-4,153,30|warp|-1,-1,010-4,91,91
010-4,39,75|warp|-1,-1,010-4,61,123
010-4,61,122|warp|-1,-1,010-4,39,77
010-4,90,67|warp|-1,-1,010-4,104,52
010-4,104,50|warp|-1,-1,010-4,90,69
010-4,61,135|warp|-1,-1,010-4,98,66
010-4,98,64|warp|-1,-1,010-4,61,137
