013-1,0,0,0,0|monster|Kack Maligno|1351,1,0ms,0ms,Mob013-1::On1351
013-1,0,0,0,0|monster|Zumbi|1036,30,0ms,0ms,Mob013-1::On1352
//013-1,0,0,0,0|monster|Cavaleiro Demoníaco|1355,20,0ms,0ms,Mob013-1::On1355
//013-1,0,0,0,0|monster|Esqueleto Guerreiro|1353,10,0ms,0ms,Mob013-1::On1353
//013-1,0,0,0,0|monster|Lady Esqueleto|1353,10,0ms,0ms,Mob013-1::On1353
//013-1,0,0,0,0|monster|Caveira de Fogo|1357,10,0ms,0ms,Mob013-1::On1357
//013-1,0,0,0,0|monster|Caveira Envenenada|1358,10,0ms,0ms,Mob013-1::On1358
//013-1,0,0,0,0|monster|Esqueleto Arqueiro|1356,10,0ms,0ms,Mob013-1::On1356


013-1,0,0,0|script|Mob013-1|32767
{
    end;

On1351:
    set @mobID, 1351;
    callfunc "MobPoints";
    end;

On1352:
    set @mobID, 1352;
    callfunc "MobPoints";
    end;

On1353:
    set @mobID, 1353;
    callfunc "MobPoints";
    end;

On1355:
    set @mobID, 1355;
    callfunc "MobPoints";
    end;

On1356:
    set @mobID, 1356;
    callfunc "MobPoints";
    end;

On1357:
    set @mobID, 1357;
    callfunc "MobPoints";
    end;

On1358:
    set @mobID, 1358;
    callfunc "MobPoints";
    end;
}
