012,134,161,0|shop|lilica0|32767,GuacheVermelho:500,GuacheVerde:500,GuacheAzul:500,GuacheAmarelo:100,GuacheLaranja:100,GuacheRosa:100
012,134,161,0|shop|lilica1|32767,HatCascaOvo:25000,OrelhasKatzeur:1000000
012,134,161,0|shop|lilica2|32767,HatCascaOvo:25000,OrelhasKatzeur:1000000,OrelhasDeLebre:50000,OrelhasDeCoelho:2000000
012,134,161,0|shop|lilica3|32767,HatCascaOvo:25000,OrelhasKatzeur:1000000,OrelhasDeLebre:50000,OrelhasDeCoelho:2000000,BonePascoa:100000,OculosCoracao:3000000
012,127,157,0|shop|bau|32767,ArmaduraCelestial:999999999,MascaraVoodoo:999999999,OculosCoracao:999999999,MascaraNinjaEstilizada:999999999,ChapeuMagico:999999999,ArmaduraDaFloresta:999999999,ElmoTaurus:999999999,ElmoDoSoberano:999999999,EspadaImortal:999999999,ArcoDosReis:999999999,EspadaDeKurogane:999999999,ElmoSamurai:999999999,AsasDeAnjo:999999999,ArmaduraWarLordDourada:999999999,MascaraNecromante:999999999
