hali001,159,19|warp|0,0,halicarnazo,116,52
hali001,128,20|warp|0,0,halicarnazo,99,53
hali001,86,29|warp|-1,-1,halicarnazo,109,46
hali001,52,32|warp|-1,-1,halicarnazo,109,64
hali001,53,18|warp|1,0,hali001,49,62
hali001,50,63|warp|1,-1,hali001,53,19
hali001,42,65|warp|-1,-1,halicarnazo,110,55
hali001,175,58|warp|-1,-1,halicarnazo,93,57
hali001,135,99|warp|-1,-1,hali001,138,57
hali001,144,69|warp|-1,-1,halicarnazo,84,64
hali001,138,56|warp|0,0,hali001,135,98
hali001,141,99|warp|-1,-1,hali001,140,57
hali001,147,99|warp|-1,-1,hali001,142,57
hali001,140,56|warp|0,0,hali001,141,98
hali001,142,56|warp|0,0,hali001,147,98
hali001,111,58|warp|-1,-1,halicarnazo,73,64
hali001,102,91|warp|0,0,halicarnazo,58,57
hali001,176,80|warp|0,0,halicarnazo,117,46
hali001,69,105|warp|-1,-1,halicarnazo,47,64
hali001,171,128|warp|-1,-1,halicarnazo,33,63
hali001,133,132|warp|-1,-1,halicarnazo,59,28
hali001,102,142|warp|1,-1,halicarnazo,43,48
hali001,68,139|warp|1,-1,halicarnazo,63,39
hali001,174,162|warp|1,-1,halicarnazo,81,48
hali001,133,164|warp|-1,-1,halicarnazo,42,34
hali001,145,157|warp|1,0,hali001,83,55
hali001,84,56|warp|1,-1,hali001,144,158
hali001,76,58|warp|-1,-1,halicarnazo,43,28
hali001,98,175|warp|-1,-1,halicarnazo,86,35
hali001,62,177|warp|-1,-1,hali001,99,166
hali001,99,165|warp|0,0,hali001,62,176
hali001,35,134|warp|-1,-1,halicarnazo,95,64
