010,31,74,22,70|monster|Limo Rodolfo|1016,8,0ms,0ms,Mob010::On1016
010,30,73,22,70|monster|Limo Noel|1015,3,0ms,0ms,Mob010::On1015
010,93,59,20,14|monster|Limo de Gelo|1318,8,0ms,0ms,Mob010::On1318
010,65,54,47,30|monster|Limo Noel|1015,3,0ms,0ms,Mob010::On1015
010,135,59,52,55|monster|Limo de Neve|1319,15,0ms,0ms,Mob010::On1319
010,69,62,22,44|monster|Anjo|1373,3,0ms,0ms,Mob010::On1373
010,70,76,28,14|monster|Limo Rodolfo|1016,8,0ms,0ms,Mob010::On1016
010,77,105,63,32|monster|Limo Rodolfo|1016,8,0ms,0ms,Mob010::On1016
010,78,106,63,32|monster|Limo Noel|1015,3,0ms,0ms,Mob010::On1015
010,141,59,29,14|monster|Mouboo|1028,6,0ms,0ms,Mob010::On1028


010,0,0,0|script|Mob010|32767
{
    end;

On1016:
    set @mobID, 1016;
    callfunc "MobPoints";
    end;

On1015:
    set @mobID, 1015;
    callfunc "MobPoints";
    end;

On1318:
    set @mobID, 1318;
    callfunc "MobPoints";
    end;

On1319:
    set @mobID, 1319;
    callfunc "MobPoints";
    end;

On1373:
    set @mobID, 1373;
    callfunc "MobPoints";
    end;

On1028:
    set @mobID, 1028;
    callfunc "MobPoints";
    end;
}
