froz001,141,81,0|script|Crônica dos Mestres#f|608
{
    callfunc "lerCronica6Mestres";
    close;
}

froz001,139,85,0|script|Livro de Froz#f|608
{
    callfunc "lerFroz";
    close;
}

froz001,144,84,0|script|Livro de Bhramir#f|608
{
    callfunc "lerBhramir";
    close;
}

froz001,134,80,0|script|Livro de Lilit#f|608
{
    callfunc "lerLilit";
    close;
}

froz001,139,83,0|script|Livro de Halicarnazo#f|608
{
    callfunc "lerHalicarnazo";
    close;
}
