008-3,45,38,30,19|monster|Limo Vermelho|1008,5,0ms,0ms,Mob008-3::On1008
008-3,91,41,17,20|monster|Cobra|1010,3,0ms,0ms,Mob008-3::On1010
008-3,71,35,25,17|monster|Escorpião Preto|1009,5,0ms,0ms,Mob008-3::On1009
008-3,68,57,26,24|monster|Escorpião Preto|1009,5,0ms,0ms,Mob008-3::On1009
008-3,45,61,11,28|monster|Limo Vermelho|1008,5,0ms,0ms,Mob008-3::On1008
008-3,38,76,15,22|monster|Escorpião Preto|1009,4,0ms,0ms,Mob008-3::On1009
008-3,58,78,6,17|monster|Limo Vermelho|1008,2,0ms,0ms,Mob008-3::On1008
008-3,89,68,11,32|monster|Limo Vermelho|1008,5,0ms,0ms,Mob008-3::On1008
008-3,83,93,19,17|monster|Limo Dourado|1007,5,120000ms,0ms,Mob008-3::On1007
008-3,72,77,21,14|monster|Cobra|1010,3,0ms,0ms,Mob008-3::On1010
008-3,67,91,11,12|monster|Escorpião Preto|1009,2,0ms,0ms,Mob008-3::On1009
008-3,58,95,6,13|monster|Limo Vermelho|1008,4,0ms,0ms,Mob008-3::On1008


008-3,0,0,0|script|Mob008-3|32767
{
    end;

On1007:
    set @mobID, 1007;
    callfunc "MobPoints";
    end;

On1008:
    set @mobID, 1008;
    callfunc "MobPoints";
    end;

On1009:
    set @mobID, 1009;
    callfunc "MobPoints";
    end;

On1010:
    set @mobID, 1010;
    callfunc "MobPoints";
    end;
}
