007-3,44,31|warp|-1,-1,007,148,26
007-3,38,38|warp|-1,-1,007,142,33
007-3,24,50|warp|-1,-1,007,128,45
007-3,100,47|warp|-1,-1,007-2,41,37
007-3,97,79|warp|-1,-1,007-2,47,83
007-3,134,55|warp|-1,-1,007-3,134,52
007-3,134,52|warp|-1,-1,007-3,134,55
007-3,157,70|warp|-1,-1,007-3,157,67
007-3,157,67|warp|-1,-1,007-3,157,70
