///////////////////////////////////////////////////////////
//   Foice da morte script                               //
//   requisitos: 20 poções da morte, uma foice,  lvl 60  //
//   e 100000 pontos de monstro                          //
//                                                       //
//   Lília a Bruxa                                       //
//                                                       //
///////////////////////////////////////////////////////////


007-3,98,27,0|script|Lília|312
{
//    mes ".:: Menu debug ::.";
//    menu
//        "Continuar", -,
//        "Resetar", -;
//    if (@menu==2) set QUEST_foiceMorte, 0;

    if (QUEST_foiceMorte == 0 && BaseLevel >= 60) goto L_iniciaBruxa;
    if (QUEST_foiceMorte == 0) goto L_sortudo;
    if (QUEST_foiceMorte == 1) goto L_retornoBruxa;
    if (QUEST_foiceMorte == 2) goto L_amadurecimentoBruxa;
    if (QUEST_foiceMorte == 3) goto L_verificarBruxa;
    if (QUEST_foiceMorte == 4) goto L_fimBruxa;
    close;

L_sortudo:
    mes "[Lília a Bruxa]";
    mes "\"Um aviso a você jovem de coragem, saia daqui enquanto ainda vives, és muito novo e tem sorte de ainda respirar.\"";
    close;

L_iniciaBruxa:
    mes "[Lília a Bruxa]";
    mes "A bruxa lhe observa com um olhar surpreso.";
    next;
    mes "[Lília a Bruxa]";
    mes "\"Hão eras que não vejo uma alma humana, corroborando de um estado carnal ao menos. Provavelmente és um ser de grande poder.\"";
    next;
    mes "[Lília a Bruxa]";
    mes "\"Para celebrar este momento lhe ofereço a oportunidade de ganhar o poder da própria morte. O que pensas a respeito criança?\"";
    next;
    menu
        "Um poder da própria morte?",                     L_explicaBruxa,
        "O que preciso fazer para conquistar tal poder?", L_coragemBruxa,
        "Não me interessa.",                              L_fechamentoBruxa;

L_explicaBruxa:
    mes "[Lília a Bruxa]";
    mes "\"Sim, exatamente. Alguns séculos de pesquisas mostraram a mim que com os ingredientes certos posso transformar uma simples foice em uma arma poderosa, a Foice da Morte, a mesma arma que é empunhada pelos mensageiros do submundo.\"";
    next;
    mes "[Lília a Bruxa]";
    mes "\"Mas cuidado, todo o poder do inexorável pode trazer sérias implicações... Estás preparado para carregar este fardo?\"";
    next;
    menu
        "Quero esta arma, o que preciso para obter a arma?",                         L_requisitosBruxa,
        "Me parece assustador, acho que não estou pronto para carregar este fardo.", L_relutaBruxa;

L_relutaBruxa:
    mes "[Lília a Bruxa]";
    mes "\"Uma tola criança diante de mim está, não creio que uma pessoa de tal força possa simplesmente relutar frente a possibilidade de obter um poder sobrenatural. Criança relutante, para o seu próprio bem, saia daqui e volte apenas se estiveres preparada para receber tal poder.\"";
    set QUEST_foiceMorte, 2;
    close;

L_coragemBruxa:
    mes "[Lília a Bruxa]";
    mes "\"Vejo uma criança destemida diante desses velhos olhos. Traga me 20 poções da morte e uma foice que lhe ofertarei a possibilidade de obter um grande poder.\"";
    next;
    menu
        "Suas poções serão trazidas em um Piscar de olhos!", L_Quest1;

L_Quest1:
    set QUEST_foiceMorte, 1;
    close;

L_fechamentoBruxa:
    mes "[Lília a Bruxa]";
    mes "\"Além de tola, diante de mim apresenta-se uma criança muito covarde. Suma de minha vista!\"";
    set QUEST_foiceMorte, 2;
    close;

L_requisitosBruxa:
    mes "[Lília a Bruxa]";
    mes "\"Traga 20 poções da morte e uma foice que lhe ofertarei tal poder, agora vá e volte apenas quando tudo estiver em suas mãos.\"";
    set QUEST_foiceMorte, 1;
    close;

L_retornoBruxa:
    mes "[Lília a Bruxa]";
    mes "\"Trouxe as poções e a foice?\"";
    next;
    menu 
        "Sim, aqui estão.",            L_verificarBruxa,
        "Não, ainda não as consegui.", L_mijadaBruxa;

L_verificarBruxa:
    if (countitem(3003) < 20) || (countitem(623) < 1) goto L_mijadaBruxa;
    goto L_entregaBruxa;

L_entregaBruxa:
    set QUEST_foiceMorte, 3;
    mes "[Lília a Bruxa]";
    mes "Confesso que não acreditei que você fosse capaz...Mas me enganei. Agora só preciso de mais uma coisa.";
    next;
    mes "[Lília a Bruxa]";
    mes "Para que você possa controlar o poder do qual eu te falei, é preciso que se mostre capaz de suportar o peso da própria morte.";
    next;
    mes "[Lília a Bruxa]";
    mes "Somente após o sacrifício de 100.000 pontos de monstros, adquiridos no calor das batalhas, eu posso te conceder a arma tão desejada.";
    next;
    mes "[Lília a Bruxa]";
    mes "O que me diz, você está preparado para fazer tudo o que te falei?";
    menu
        "Sim!",                                              L_entregaBruxaMsm,
        "Não estou gostando nada desse papo de sacrifício.", L_Fechar;
    
L_entregaBruxaMsm:
    if (Mobpt < 100000) goto L_semmobpoint;
    mes "[Lília a Bruxa]";
    mes "\"hmmm... " +Mobpt+ " pontos de monstro... Vejo que lutou muito para chegar a este patamar. Sua vontade será realizada!\"";
    next;
    mes "Ao entregar as poções a bruxa imediatamente bebe uma e você sente uma energia obscura, de repente tudo torna-se em escuridão e você apenas consegue escutar as palavras 'In mortis une schivolla'. Em poucos segundos você percebe diante de seus olhos uma arma formidável que parece ter o peso do próprio inferno, sentes uma enorme tentação em usa-la.";
    next;
    delitem 3003, 20;
    delitem 623, 1;
    getinventorylist;
    if (@inventorylist_count >= 100) goto L_semlugarBruxa;
    mes "[Lília a Bruxa]";
    mes "\"Esta arma é um fardo, carregue-o sabiamente.\"";
    getexp 50000, 0;
    getitem 3004, 1;
    set QUEST_foiceMorte, 4;
    close;

L_semmobpoint:
    mes "[Lília a Bruxa]";
    mes "\"hmmm... Você ainda não tem a experiência necessária para carregar a arma que te ofereci... É necessário que você obtenha pelo menos mais " +(100000-Mobpt)+ " pontos de monstro...\"";
    close;


L_mijadaBruxa:
    mes "[Lília a Bruxa]";
    mes "\"Suma e não retorne, a menos que estejas em posse das 20 poções e da foice.\"";
    close;

L_semlugarBruxa:
    mes "[Lília a Bruxa]";
    mes "\" Não há espaço para carregar minha foice em seu inventário, volte mais tarde\"";
    close;

L_fimBruxa:
    mes "[Lília a Bruxa]";
    mes "\"Lembre-se criança, hão consequências no uso deste poder\"";
    next;
    menu
        "Entendo, agradeço sua ajuda.", L_Fechar,
        "Tudo bem, não me importo.",    L_Fechar;

L_amadurecimentoBruxa:
    mes "[Lília a Bruxa]";
    mes "\"Diante de mim apresenta-se novamente esta tola criança, provavelmente suplicando por uma chance de receber o poder da morte.\"";
    next;
    menu
        "Sim, eu quero este poder, o que preciso para o possuir?", L_requisitosBruxa,
        "Não, eu só estava de passagem.",                          L_fechamentoBruxa;

L_Fechar:
    close;
}
