//     QUEST DO CAVALEIRO AMALDIÇOADO PARA O HALLOWEEN (NPC Cavaleiro)
//
//   QUESTARTS:
//      * Selena<santos.alinnee@gmail.com>
//      * Lunovox<rui.gravata@hotmail.com>
//   CRIAÇÃO: 22/10/2011
//   DESCRIÇÃO:
//      * O Cavaleiro diz que um bruxa o petrificou. O Jogador tem que conseguir uma poção da bruxa
//        Morgana e entregar ao Cavaleiro Amaldiçoado para ganhar a Espada Amaldiçoada do Cavaleiro.
//   IDs DE ITENS DEPENDENTES:
//      * Espada Petrificada
//      * Poção Despetrificação
//      * Lanterna Jack (Necessária na Quest, mas não usada neste NPC)
//      * Asas de Morcego Vampiro (Necessária na Quest, mas não usada neste NPC)
//      * Asas de Morcego Negro (Necessária na Quest, mas não usada neste NPC)
//      * Petalas de Flor Carnívora (Necessária na Quest, mas não usada neste NPC)
//      * Garrafas de Água (Necessária na Quest, mas não usada neste NPC)
//      * Par de Olhos (Necessária na Quest, mas não usada neste NPC)
//      * Monte de Palhas de Espantalho (Necessária na Quest, mas não usada neste NPC)
//      * Alma de Jack Maligno. (Necessária na Quest, mas não usada neste NPC)
//   CÓDIGO DEPENDENTE:
//      * Falta por is ID de itens na configuração deste script.
//      * A quest inteira possui 2 NPC:
//           + Cavaleiro Amaldiçoado
//           + Bruxa Amaldiçoadora
//

//013,84,88,0|script|debug|378
{
//    callfunc "debug";
//    mes "HLW2011_cavAmaldicoado: " + HLW2011_cavAmaldicoado;
//    menu
//        "Set HLW2011_cavAmaldicoado 0", -,
//        "Set HLW2011_cavAmaldicoado 1", -,
//        "Set HLW2011_cavAmaldicoado 2", -,
//        "Set HLW2011_cavAmaldicoado 3", -,
//        "Set HLW2011_cavAmaldicoado 4", -,
//        "Set HLW2011_cavAmaldicoado 5", -,
//        "Set HLW2011_cavAmaldicoado 6", -,
//        "Set HLW2011_cavAmaldicoado 7", -,
//        "sair", -;
//    if (@menu<0 || @menu>8) close;
//    set HLW2011_cavAmaldicoado, @menu-1;
//    close;
//}

013,87,88,0|script|estátua|378
{
    //Seta IDs dos Itens
    set @pocaoDespetrificacao, 3355;
    set @espadaPetrificada, 3356;

    //Redirecionamento de Cenas
    if (HLW2011_cavAmaldicoado >= 1 && HLW2011_cavAmaldicoado <= 5) goto L_voltaCheckPocao;
    if (HLW2011_cavAmaldicoado == 6) goto L_darPremio;
    if (HLW2011_cavAmaldicoado >= 7) goto L_congratulacoes;
    goto L_inicio;

//-------------------------------------------------------------------------------------------------------
L_inicio:
    sc_start 200, 180, 1;
    mes "Perto do casarão há muitas estatuas. Uma delas chama mais atenção que as outras. É a estatua de um homem já mais velho, que segura uma espada. A figura é fascinante, parece estar viva. Você se aproxima pra tocar a espada. Mas algo inacreditável acontece. A estatua pisca. Você dá 2 passos rápidos para trás. A estatua começa a ganhar vida, o cimento vai desaparecendo dando lugar a um homem de carne e osso. Ele sorri pra você e diz:";
    next;
    sc_start 200, 180, 1;
    mes "[Estátua]";
    mes "(-_-) \"Olá Jovem. Que faz por essas terras?\"";
    next;
    sc_start 200, 180, 1;
    mes "[" + strcharinfo(0) + "]";
    mes "(O_o) \"Você era uma estátua?\"";
    next;
    sc_start 200, 180, 1;
    mes "[Estátua]";
    mes "(-_-) \"Oh sim, eu era. Sou o Cavaleiro Amaldiçoado. De dia pedra e de noite homem.\"";
    next;
    sc_start 200, 180, 1;
    mes "[Cavaleiro Amaldiçoado]";
    mes "(-_-) \"Quinze anos atrás, vim ter com a dona desta propriedade, uma bruxa, uma batalha, da qual saí derrotado e amaldiçoado.\"";
    next;
    sc_start 200, 180, 1;
    mes "[" + strcharinfo(0) + "]";
    mes "(O_o) \"Mas já faz quinze anos. Por que não pediu a ela para retirar a maldição?\"";
    next;
    sc_start 200, 180, 1;
    mes "[" + strcharinfo(0) + "]";
    mes "(^_^) \"Vai ver ela já esqueceu.\"";
    next;
    sc_start 200, 180, 1;
    mes "[Cavaleiro Amaldiçoado]";
    mes "\"A bruxa não vem mais a está propriedade, assim, não posso mais falar com ela. E a maldição não me permite sair. Se talvez uma criatura de bom coração aparecesse algum dia para me ajudar.\"";
    next;
    sc_start 200, 180, 1;
    mes "[" + strcharinfo(0) + "]";
    mes "(^_^) \"É, seria bom.\"";
    next;
    sc_start 200, 180, 1;
    mes "[Cavaleiro Amaldiçoado]";
    mes "(-_-) \"Alguém valente e destemido...\"";
    next;
    sc_start 200, 180, 1;
    mes "[" + strcharinfo(0) + "]";
    mes "(¬_¬) \"Sim! Sim! Muito valente.\"";
    next;
    sc_start 200, 180, 1;
    mes "[Cavaleiro Amaldiçoado]";
    mes "(-_-) \"... e disposto a ganhar um prêmio.\"";
    next;
    sc_start 200, 180, 1;
    mes "[" + strcharinfo(0) + "]";
    mes "($_$) \"Sabe, talvez eu possa ajudá-l" + @fm$ + ".\"";
    next;
    sc_start 200, 180, 1;
    mes "[Cavaleiro Amaldiçoado]";
    mes "(^_^) \"Oh! Que gentil.\"";
    next;
    sc_start 200, 180, 1;
    mes "[" + strcharinfo(0) + "]";
    mes "($_$) \"O que eu precisaria fazer?\"";
    next;
    sc_start 200, 180, 1;
    mes "[Cavaleiro Amaldiçoado]";
    mes "(-_-) \"Tem que achar Morgana, a bruxa que me amaldiçoo. Ela partiu depois que me lançou a maldição. Não deve ser difícil achá-la. É uma bruxa, deve ser conhecida por todos. Então quando encontrá-la, tome cuidado. Ela é muito traiçoeira.\"";
    next;
    sc_start 200, 180, 1;
    mes "[" + strcharinfo(0) + "]";
    mes "(O.o) \"Mas e se ela me amaldiçoar também?\"";
    next;
    sc_start 200, 180, 1;
    mes "[Cavaleiro Amaldiçoado]";
    mes "Cavaleiro coloca a mão sobre o peito e diz:";
    mes "(-_-) \"Seu sacrifício nunca será esquecido, prometo.\"";
    next;
    sc_start 200, 180, 1;
    mes "[" + strcharinfo(0) + "]";
    menu
        "Parece muito perigoso, não vou ajudar.", L_naoAceito,
        "Verei o que posso fazer.",               L_verei;

L_verei:
    mes "[Cavaleiro Amaldiçoado]";
    mes "(-_-) \"Ok! Conto com você, brav" + @fm$ + " guerreir" + @fm$ + ".\"";
    set HLW2011_cavAmaldicoado, 1;
    goto L_close;

L_naoAceito:
    sc_start 200, 180, 1;
    mes "[Cavaleiro Amaldiçoado]";
    mes "(-.-) \"Ok! Então, procurarei uma pessoa realmente corajosa.\"";
    goto L_close;

L_voltaCheckPocao:
    sc_start 200, 180, 1;
    if (countitem(@pocaoDespetrificacao) == 1) goto L_voltaComPocao;
    mes "[Cavaleiro Amaldiçoado]";
    mes "(*_*) \"Conseguiu a [" + getitemlink("PocaoDespetrificacao") + "]?\"";
    next;
    sc_start 200, 180, 1;
    mes "[" + strcharinfo(0) + "]";
    mes "(-.-) \"Ainda não!\"";
    goto L_close;

L_voltaComPocao:
    sc_start 200, 180, 1;
    mes "[Cavaleiro Amaldiçoado]";
    mes "(*_*) \"Conseguiu?\"";
    next;
    sc_start 200, 180, 1;
    mes "[" + strcharinfo(0) + "]";
    mes "(^_^) \"Aqui sua poção!\"";
    next;
    sc_start 200, 180, 1;
    if (countitem(@pocaoDespetrificacao) == 0) goto L_tentouEnganar;
    delitem @pocaoDespetrificacao, 1;
    set HLW2011_cavAmaldicoado, 6;

    mes "[Cavaleiro Amaldiçoado]";
    mes "O cavaleiro o olha cheio de alegria e gratidão. Enquanto tomava a poção em um gole só.";
    mes "(*_*) \"Muito obrigado!\"";
    next;
    sc_start 200, 180, 1;
    mes "[Cavaleiro Amaldiçoado]";
    mes "Mas algo não está certo. Ele encolhe e sua voz afina.";
    mes "(O.o) \"O que está acontecendo?\"";
    next;
    sc_start 200, 180, 1;
    mes "[" + strcharinfo(0) + "]";
    mes "(O.o) \"Aquela bruxa deve ter me enganado.\"";
    next;
    sc_start 200, 180, 1;
    mes "[Cavaleiro Amaldiçoado]";
    mes "(O.o) \"Espere! Algo está acontecendo.\"";
    next;
    sc_start 200, 180, 1;
    mes "[Cavaleiro Amaldiçoado]";
    mes "O cavaleiro volta a ter seu tamanho normal, e diz:";
    mes "(*.*) \"Eu posso ver a saída. Estou liberto!\"";
    next;
    sc_start 200, 180, 1;
    mes "[" + strcharinfo(0) + "]";
    mes "(^_^) \"Agora só precisa ir para casa.\"";
    next;
    sc_start 200,180, 1;
    goto L_darPremio;

L_darPremio:
    sc_start 200, 180, 1;
    mes "[Cavaleiro Amaldiçoado]";
    mes "(^_^) \"Obrigado por tudo. Vou lhe dar sua recompensa por me ajudar.\"";
    next;
    sc_start 200, 180, 1;
    getitem @espadaPetrificada, 1;
    set HLW2011_cavAmaldicoado, 7;

    mes "[Cavaleiro Amaldiçoado]";
    mes "Cavaleiro ergue a espada de pedra e a balança no ar. Quando ele faz isso, ela parece ganhar vida. Então, ele a deixa parada e ela vira pedra de novo. Assim, ele lhe entrega a espada e diz:";
    mes "(^_^) \"Não vou mais precisar dela. Já travei todas as batalhas que poderia. Essa espada foi amaldiçoada também. Ela ganha vida apenas quando está em batalha. Cuide bem dela.\"";
    next;
    sc_start 200, 180, 1;
    mes "[" + strcharinfo(0) + "]";
    mes "(*-*) \"Obrigado! Cuidarei sim.\"";
    next;
    sc_start 200, 180, 1;
    mes "[Cavaleiro Amaldiçoado]";
    mes "O cavaleiro faz uma reverência e diz:";
    mes "(^_^) \"Já é chegada minha hora. Vou recolher minhas coisas e partir.\"";
    next;
    sc_start 200, 180, 1;
    mes "[" + strcharinfo(0) + "]";
    mes "(^-^) \"Boa sorte!\"";
    goto L_close;

L_tentouEnganar:
    sc_start 200, 180, 1;
    mes "[Cavaleiro Amaldiçoado]";
    mes "¬.¬ \"E onde está a poção?! Não tem ela com você.";
    mes "Aposto que não teve coragem de enfrentrar a bruxa.\"";
    goto L_close;

L_congratulacoes:
    sc_start 200, 180, 1;
    mes "[Cavaleiro Amaldiçoado]";
    mes "(^_^) \"Obrigado por tudo, brav" + @fm$ + " guerreir" + @fm$ + ".\"";
    goto L_close;

L_close:
    sc_start 200, 10, 1;
    close;
}
