//     QUEST DO LOBISOMEM PARA O HALLOWEEN
//                                                                                                      
//   QUESTARTS:
//      * Selena<santos.alinnee@gmail.com>
//      * Lunovox<rui.gravata@hotmail.com>
//   CRIAÇÃO: 19/10/2011
//   DESCRIÇÃO:
//      * O lobisomem pede ao jogador uma guloseima da 'Loja do Frank' em troca de acalmar sua própria
//      fome e não devorar o jogador. Ele vai ter que testar vários pratos, o jogador pode abrir seu
//      inventario e escolher o que dar, o lobo vai gostar de um que vai ser o prato mais caro da múmia,
//      ai vai pedir pra repetir '@Fome' vezes e ai sim vai dar o Capacete.
//   IDs DE ITENS DEPENDENTES:
//      * Guloseimas da Loja do Frank
//      * Capacete (Selena não disse qual é o Capacete)
//


013,269,94,0|script|debug|376
{
    callfunc "debug";
    mes "Quest_Lobisomem: " + Quest_Lobisomem;
    menu
        "Set Quest_Lobisomem, 0", -,
        "Set Quest_Lobisomem, 1", -,
        "Set Quest_Lobisomem, 2", -,
        "Set Quest_Lobisomem, 3", -,
        "Set Quest_Lobisomem, 4", -,
        "Sair", -;
    if (@menu<0 || @menu>5) close;
    set Quest_Lobisomem, @menu-1;
    close;
}

013,272,94,0|script|Lobisomem|376
{

L_inicio:
    sc_start 200,180, 1;
//------------------------------------------------------------------------------------------------------
    //Seta detalhes de fala
    setarray @umx$, "uma", "um";
    setarray @humanx$, "humana", "humano";
    setarray @gordinhx$, "gordinha", "gordinho";

    //Seta IDs dos Itens
    set @Gulosemas, 0;
    set @Capacete, 0;

    //Seta a quantidade de Gulosemas que o lobisomem vai comer
    set @Fome, 3;

    //Redirecionamento de Cenas
    if (Quest_Lobisomem>=@Fome+2) goto L_Congratulacoes;
    if (Quest_Lobisomem>=1) goto L_Volta;
//------------------------------------------------------------------------------------------------------
    sc_start 200,180, 1;
    mes "No meio da floresta, uma figura monstruosa te observa. Ele parece um homem, mas de certa forma lembra um lobo também. Seu corpo é peludo e tem presas afiadas assim como unhas que parecem lâminas. Ele o encara, enquanto você se pergunta se esse é o seu fim.";
    next;
    sc_start 200,180, 1;
    mes "Sim! Parece que você já era. Ele vem rapidamente para perto de você e começa a cheirá-lo. Aproxima seus dentes assustadores de seu rosto. Dá para sentir o hálito dele, e não é dos melhores.";
    next;
    sc_start 200,180, 1;
    mes "["+ strcharinfo(0) +"]";
    mes "Tremendo até o dedão do pé, você se atreve a dizer:";
    mes "(O_o) \"Bo...bo..boa... noite!\"";
    next;
    sc_start 200,180, 1;
    mes "[Lobisomem]";
    mes "Ele se afasta um pouco, encarando-o. Então de repente ele monstra os dentes afiados e longos como navalhas. Num gesto similar a um sorriso macabro o lobisomem diz";
    mes "\"Ora ora, que faz em minha floresta?\"";
    next;
    sc_start 200,180, 1;
    mes "[Lobisomem]";
    mes "\"Olá "+@humanx$[Sex]+"! Meu nome é 'Lican Silver, o lobisomem'. Estou esperando uma menininha de capa vermelha que ajudei a recolher frutas. Ela disse que me traria um enorme pedaço de bife. Mas não voltou. Você a viu, "+@humanx$[Sex]+"?\"";
    next;
    sc_start 200,180, 1;
    mes "["+ strcharinfo(0) +"]";
    mes "(O.o) \"Não vi nenhuma menininha de capa vermelha pelo caminho.\"";
    next;
    sc_start 200,180, 1;
    mes "[Lican Silver]";
    mes "\"É realmente uma pena. Você parecia ser "+@umx$[Sex]+" "+@humanx$[Sex]+" legal. Mas tenho muita fome, então, vou te devorar.\"";
    next;
    sc_start 200,180, 1;
    mes "["+ strcharinfo(0) +"]";
    mes "(X.x) \"Não, não faça isso. Eu sou muito "+@gordinhx$[Sex]+". Essa gordura pode te fazer mal. Imagina se você têm uma dor de barriga logo num dia tão importante quanto o Halloween?\"";
    next;
    sc_start 200,180, 1;
    mes "[Lican Silver]";
    mes "Ele vai em sua direção, abre a boca enorme e diz:";
    mes "\"Pode ser que eu precise selecionar melhor minha comida. Mas se eu comer um pouco só de gordura hoje, não vai me fazer tão mal.\"";
    next;
    sc_start 200,180, 1;
    mes "["+ strcharinfo(0) +"]";
    mes "Você volta a tremer da cabeça aos pés, diz:";
    mes "(Xox) \"Espere! Espere! Espere!\"";
    next;
    sc_start 200,180, 1;
    mes "["+ strcharinfo(0) +"]";
    mes "O lobisomem para com a boca aberta a poucos centímetros de você, quando você diz:";
    mes "(>.<) \"Mas com esse pensamento você vai acabar doente ou pior, vai ficar enorme e nem será capaz de correr atrás de suas presas.\"";
    next;
    sc_start 200,180, 1;
    mes "[Lican Silver]";
    mes "O lobisomem se afasta um pouco,fecha a boca e diz:";
    mes "\"Tem razão! Preciso me cuidar para poder correr atrás de minhas refeições.\"";
    next;
    sc_start 200,180, 1;
    mes "["+ strcharinfo(0) +"]";
    mes "(o_o) \"Isso mesmo!\"";
    next;
    sc_start 200,180, 1;
    mes "[Lican Silver]";
    mes "\"Mas estou com muita fome. O que irei comer?\"";
    next;
    sc_start 200,180, 1;
    mes "["+ strcharinfo(0) +"]";
    mes "Você começa pensar rapidamente em alguma forma de sair ileso das mãos desse monstro, e diz:";
    mes "(>_<) \"E essa menina de capa vermelha que ia te arranjar o bife?\"";
    next;
    sc_start 200,180, 1;
    mes "[Lican Silver]";
    mes "\"Ela partiu faz quase duas horas, para casa de sua avó. Uma Bruxa que vive nas redondezas. Disse que voltaria logo e me traria um bife bem suculento. Eu iria atrás dela sabe, mas é neta de uma bruxa poderosa, não posso me arriscar.\"";
    next;
    sc_start 200,180, 1;
    mes "["+ strcharinfo(0) +"]";
    mes "Você começa a ficar irritado por não ter tanto poder como a bruxa que o lobisomem falou e poder conseguentemente se safar dessa. Mas, mesmo irritado, a única coisa que você consegue pensar em dizer é:";
    mes "\"Vou procurar alguma comida pra você. O que gosta de comer?\"";
    next;
    sc_start 200,180, 1;
    mes "[Lican Silver]";
    mes ">=] \"Gosto de carne! Muuuita carne!\"";
    next;
    sc_start 200,180, 1;
    mes "[Lican Silver]";
    mes "(-_-) \"Mas ultimamente estou inclinado a experimentar coisas diferentes. Outro dia, encontrei um amigo, um zumbi ai. Ele me disse que na loja do Frank estão vendendo comidas novas. Disse também que era a velha múmia que era a chefe de cozinha. Me lembro de ouvir maravilhas sobre o guizado de vermes dela. Você poderia me trazer algo diferente de lá. O que acha?\"";
    next;
    sc_start 200,180, 1;
    mes "["+ strcharinfo(0) +"]";
    mes "Você começa a parar de tremer por estar aliviado com o que o lobisomem lhe disse, e responde:";
    mes "(-_-) \"Me parece uma excelente ideia.\"";
    next;
    sc_start 200,180, 1;
    mes "[Lican Silver]";
    mes "O lobisomem se aproxima novamente. Olha bem em seus olhos. e diz:";
    mes "(T_T) \"Você não estaria me enganado como a menina? Estaria?\"";
    next;
    sc_start 200,180, 1;
    mes "["+ strcharinfo(0) +"]";
    mes "Você sente o seu coração acelerar repentinamente por causa do perigo súbito, e responde:";
    mes "(x.x) \"Que isso?!? De jeito nenhum!!!\"";
    next;
    sc_start 200,180, 1;
    mes "[Lican Silver]";
    mes "(T_T) \"Se você não voltar, vou caça-lo.\"";
    next;
    sc_start 200,180, 1;
    mes "["+ strcharinfo(0) +"]";
    mes "(x.x) \"Não se incomode! Eu voltarei logo.\"";
    set Quest_Lobisomem, 1;
goto L_close;
//------------------------------------------------------------------------------------------------------
L_Volta:
    sc_start 200,180, 1;
    mes "[Lican Silver]";
    mes "(*.*) \"O que você me trouxe?\"";
    next;
    sc_start 200,180, 1;
    mes "["+ strcharinfo(0) +"]";
    menu
        "Trouxe isso, Mestre.", L_TesteDeSabor,
        "Ainda não deu tempo de ir buscar.", -;
    mes "[Lican Silver]";
    mes "(T_T) \"Então, vá buscar antes que eu me arrependa, "+@humanx$[Sex]+"!\"";
goto L_close;
//------------------------------------------------------------------------------------------------------
L_TesteDeSabor:
    sc_start 200,180, 1;
    if (countitem(@Gulosemas)>=1) goto L_ProvarComida;
    mes "[Lican Silver]";
    mes "(T_T) \"Isso que você trouxe não me agrada para comer. Vá e traga algo que preste para meu estômago refinado!\"";
    next;
    sc_start 200,180, 1;
    mes "["+ strcharinfo(0) +"]";
    mes "(x.x) \"Sim senhor! Eu volto com seu banquete.\"";
goto L_close;
//------------------------------------------------------------------------------------------------------
L_ProvarComida:
    sc_start 200,180, 1;
    mes "[Lican Silver]";
    mes "(*.*) \"Obaaaaa!\"";
    next;
    sc_start 200,180, 1;
    if (Quest_Lobisomem==1) mes "[Lican Silver]";
    if (Quest_Lobisomem==1) mes "\"Eu já estava pensando em ir te caçar. Mas vejo que você cumpriu suas promessas.\"";
    if (Quest_Lobisomem==1) next;
    if (Quest_Lobisomem+countitem(@Gulosemas)>@Fome+1) set @Excedente, (Quest_Lobisomem+countitem(@Gulosemas))-(@Fome+1);
    if (Quest_Lobisomem+countitem(@Gulosemas)<=@Fome+1) set @Excedente, 0;
    if (countitem(@Gulosemas)>=1) set Quest_Lobisomem, Quest_Lobisomem + (countitem(@Gulosemas)-@Excedente); //Pega somente o necessário para concluir a quest.
    if (countitem(@Gulosemas)>=1) delitem @Gulosemas, (countitem(@Gulosemas)-@Excedente); //Pega somente o necessário para matar a fome.
    mes "["+ strcharinfo(0) +"]";
    mes "Apavorado você observa o lobisomem devorar a comida que você trouxe, e tremulamente pergunta:";
    mes "(x.x) \"O senhor precisa de mim para mais alguma coisa?\"";
    next;
    sc_start 200,180, 1;
    if (Quest_Lobisomem>=@Fome+1) goto L_Satisfeito;
    mes "[Lican Silver]";
    mes "O lobisomem olha para você fixamente como se você fosse a sobremesa, e diz com uma voz gutural:";
    mes "(T.T) \"Eu ainda sinto fome!\"";
    next;
    sc_start 200,180, 1;
    mes "[Lican Silver]";
    mes "Ele berra para você uma ordem:";
    mes "(T.T) \"Vá buscar mais comida!\"";
    next;
    sc_start 200,180, 1;
    mes "["+ strcharinfo(0) +"]";
    mes "O medo nem lhe deu tempo para pensar, quando você se virou para escapar e disse:";
    mes "(x.x) \"Sim Chefinho! Volto já!\"";
goto L_close;
//------------------------------------------------------------------------------------------------------
L_Satisfeito:
    sc_start 200,180, 1;
    mes "[Lican Silver]";
    mes "O lobisomem olha para você com um sorriso macabro e diz:";
    mes "(^~^) \"Muito bom. Estou satisfeito. Agora preciso falar com um amigo sobre meus bens que sumiram. Estou indo.\"";
    next;
    sc_start 200,180, 1;
    mes "[Lican Silver]";
    mes "O lobisomem começa a andar para longe, mas de repente ele para e diz:";
    mes "(T_T) \"Quase me esqueci!\"";
    next;
    sc_start 200,180, 1;
    mes "[Lican Silver]";
    mes "Ele entra numa caverna. Sai instantes depois com algo preso sobre suas mandíbulas e diz:";
    mes "(^~^) \"Esse capacete. Eu o usava muito quando era só um homem. Não me serve hoje em dia. Minha cabeça de lobo tem quase o dobro do tamanho de antes, então fique com ele por me ajudar. Obrigado, "+@humanx$[Sex]+"!\"";
    set Quest_Lobisomem, Quest_Lobisomem + 1; //Quest_Lobisomem>=5
    getitem @Capacete, 1;
    next;
    sc_start 200,180, 1;
    mes "["+ strcharinfo(0) +"]";
    mes "Você sente uma grande surpresa com a súbita generosidade do lobisomem, você responde:";
    mes "(O_o) \"Não tem de que, chefinho!\"";
goto L_close;
//------------------------------------------------------------------------------------------------------
L_Congratulacoes:
    sc_start 200,180, 1;
    mes "[Lican Silver]";
    mes "\"Esta gostando deste capacete, "+@humanx$[Sex]+"?\"";
    next;
    sc_start 200,180, 1;
    mes "["+ strcharinfo(0) +"]";
    mes "(^~^) \"Sim, chefinho!\"";
goto L_close;

L_close:
    sc_start 200,10, 1;
    close;

}
