// Name and Label MUST NOT exceed 23 characters (as marked)
//ID,   Name___________________,        Type,   Price,      Sell,       Weight,     ATK,    DEF,    Range,  Mbonus, Slot,   Gender, Loc,        wLV,    eLV,    View,   {UseScript},                                                            {EquipScript}
523,    CamisaDeCouro,                      5,      2000,       1000,       20,     0,      4,      0,      0,      0,      2,      512,    0,      20,     0,      {},     {}
546,    CamisaDoDeserto,                    5,      2000,       1000,       20,     0,      6,      0,      0,      0,      2,      512,    0,      30,     0,      {},     {}
564,    SueterDeGolaAlta,                   5,      2000,       1000,       30,     0,      2,      0,      0,      0,      2,      512,    0,      1,      0,      {},     {}
624,    SueterComDecoteEmV,                 5,      6000,       3000,       35,     0,      2,      0,      0,      0,      2,      512,    0,      1,      0,      {},     {}
625,    CamisaDeCorrentes,                  5,      15000,      1500,       800,    0,      20,     0,      0,      0,      2,      512,    0,      30,     0,      {},     {}
626,    ArmaduraLeve,                       5,      50000,      2500,       1200,   0,      24,     0,      0,      0,      2,      512,    0,      40,     0,      {},     {}
645,    ArmaduraDouradaLeve,                5,      9999000,    3000,       1200,   0,      25,     0,      0,      0,      2,      512,    0,      55,     0,      {},     {}
658,    ArmaduraDoLordeDaGuerra,            5,      100000,     3000,       2600,   0,      26,     0,      0,      0,      2,      512,    0,      50,     0,      {},     {}
659,    ArmaduraWarLordDourada,             5,      500000,     4000,       2600,   0,      27,     0,      0,      0,      2,      512,    0,      55,     0,      {},     {}
688,    Camiseta,                           5,      10,         5,          10,     0,      2,      0,      0,      0,      2,      512,    0,      0,      0,      {},     {}
689,    CamisetaCurta,                      5,      10,         5,          8,      0,      2,      0,      0,      0,      2,      512,    0,      0,      0,      {},     {}
720,    TunicaDeSeda,                       5,      8000,       4000,       5,      0,      5,      0,      0,      0,      2,      512,    0,      30,     0,      {},     {}
726,    TunicaGM,                           5,      0,          0,          40,     0,      5,      0,      0,      0,      2,      512,    0,      0,      0,      {},     {if (getgmlevel() < 40) delitem "TunicaGM", 1;}
755,    CamisaDeAssassino,                  5,      10000,      3000,       150,    0,      15,     0,      0,      0,      2,      512,    0,      95,     0,      {},     {bonus bAgi, 1;}
767,    ArmaduraDeTerranite,                5,      999900,     3000,       240,    0,      18,     0,      0,      0,      2,      512,    0,      40,     0,      {},     {bonus bDex, 3; bonus bMdef, 10;}
782,    ArmaduraDaFloresta,                 5,      9999000,    3000,       240,    0,      25,     0,      0,      0,      2,      512,    0,      40,     0,      {},     {}
783,    VestidoVermelho,                    5,      100000,     50000,      25,     0,      2,      0,      3,      0,      0,      512,    0,      1,      0,      {},     {}
1202,   CamisaDeAlgodao,                    5,      10,         5,          13,     0,      2,      0,      0,      0,      2,      512,    0,      0,      0,      {},     {}
2050,   CamisaVermelha,                     5,      10,         5,          20,     0,      2,      0,      0,      0,      2,      512,    0,      0,      0,      {},     {}
2051,   CamisaVerde,                        5,      10,         5,          20,     0,      2,      0,      0,      0,      2,      512,    0,      0,      0,      {},     {}
2052,   CamisaAzulEscura,                   5,      10,         5,          20,     0,      2,      0,      0,      0,      2,      512,    0,      0,      0,      {},     {}
2053,   CamisaAmarela,                      5,      10,         5,          20,     0,      2,      0,      0,      0,      2,      512,    0,      0,      0,      {},     {}
2054,   CamisaAzulClara,                    5,      10,         5,          20,     0,      2,      0,      0,      0,      2,      512,    0,      0,      0,      {},     {}
2055,   CamisaRosa,                         5,      10,         5,          20,     0,      2,      0,      0,      0,      2,      512,    0,      0,      0,      {},     {}
2056,   CamisaPreta,                        5,      10,         5,          20,     0,      2,      0,      0,      0,      2,      512,    0,      0,      0,      {},     {}
2057,   CamisaLaranja,                      5,      10,         5,          20,     0,      2,      0,      0,      0,      2,      512,    0,      0,      0,      {},     {}
2058,   CamisaRoxa,                         5,      10,         5,          20,     0,      2,      0,      0,      0,      2,      512,    0,      0,      0,      {},     {}
2059,   CamisaVerdeEscura,                  5,      10,         5,          20,     0,      2,      0,      0,      0,      2,      512,    0,      0,      0,      {},     {}
2060,   SueterVermelhoDecoteV,              5,      6000,       3000,       35,     0,      8,      0,      0,      0,      2,      512,    0,      1,      0,      {},     {}
2061,   SueterVerdemDecoteV,                5,      6000,       3000,       35,     0,      2,      0,      0,      0,      2,      512,    0,      1,      0,      {},     {}
2062,   SueterAzulEscDecoteV,               5,      6000,       3000,       35,     0,      2,      0,      0,      0,      2,      512,    0,      1,      0,      {},     {}
2063,   SueterAmareloDecoteV,               5,      6000,       3000,       35,     0,      2,      0,      0,      0,      2,      512,    0,      1,      0,      {},     {}
2064,   SueterAzulClDecoteV,                5,      6000,       3000,       35,     0,      2,      0,      0,      0,      2,      512,    0,      1,      0,      {},     {}
2065,   SueterRosaDecoteV,                  5,      6000,       3000,       35,     0,      2,      0,      0,      0,      2,      512,    0,      1,      0,      {},     {}
2066,   SueterPretoDecoteV,                 5,      6000,       3000,       35,     0,      2,      0,      0,      0,      2,      512,    0,      1,      0,      {},     {}
2067,   SueterLaranjaDecoteV,               5,      6000,       3000,       35,     0,      2,      0,      0,      0,      2,      512,    0,      1,      0,      {},     {}
2068,   SueterroxoDecoteV,                  5,      6000,       3000,       35,     0,      2,      0,      0,      0,      2,      512,    0,      1,      0,      {},     {}
2069,   SueterVerdeEscDecoteV,              5,      6000,       3000,       35,     0,      2,      0,      0,      0,      2,      512,    0,      1,      0,      {},     {}
2070,   SueterVermelhoGolaAlta,             5,      2000,       1000,       35,     0,      2,      0,      0,      0,      2,      512,    0,      1,      0,      {},     {}
2071,   SueterVerGolaAlta,                  5,      2000,       1000,       35,     0,      2,      0,      0,      0,      2,      512,    0,      1,      0,      {},     {}
2072,   SueterAzulEscGolaAlta,              5,      2000,       1000,       35,     0,      2,      0,      0,      0,      2,      512,    0,      1,      0,      {},     {}
2073,   SueterAmareloGolaAlta,              5,      2000,       1000,       35,     0,      2,      0,      0,      0,      2,      512,    0,      1,      0,      {},     {}
2074,   SueterAzulClGolaAlta,               5,      2000,       1000,       35,     0,      2,      0,      0,      0,      2,      512,    0,      1,      0,      {},     {}
2075,   SueterRosaGolaAlta,                 5,      2000,       1000,       35,     0,      2,      0,      0,      0,      2,      512,    0,      1,      0,      {},     {}
2076,   SueterPretoGolaAlta,                5,      2000,       1000,       35,     0,      2,      0,      0,      0,      2,      512,    0,      1,      0,      {},     {}
2077,   SueterLaranjaGolaAlta,              5,      2000,       1000,       35,     0,      2,      0,      0,      0,      2,      512,    0,      1,      0,      {},     {}
2078,   SueterPurpuraGolaAlta,              5,      2000,       1000,       35,     0,      2,      0,      0,      0,      2,      512,    0,      1,      0,      {},     {}
2079,   SueterVerdeEscGolaAlta,             5,      2000,       1000,       35,     0,      2,      0,      0,      0,      2,      512,    0,      1,      0,      {},     {}
2080,   TunicaVermelhaDeSeda,               5,      8000,       4000,       30,     0,      2,      0,      0,      0,      2,      512,    0,      30,     0,      {},     {}
2081,   TunicaVerdeDeSeda,                  5,      8000,       4000,       30,     0,      2,      0,      0,      0,      2,      512,    0,      30,     0,      {},     {}
2082,   TunicaAzulEscuraDeSeda,             5,      8000,       4000,       30,     0,      2,      0,      0,      0,      2,      512,    0,      30,     0,      {},     {}
2083,   TunicAamarelaDeSeda,                5,      8000,       4000,       30,     0,      2,      0,      0,      0,      2,      512,    0,      30,     0,      {},     {}
2084,   TunicaAzulClaraDeSeda,              5,      8000,       4000,       30,     0,      2,      0,      0,      0,      2,      512,    0,      30,     0,      {},     {}
2085,   TunicaRosaDeSeda,                   5,      8000,       4000,       30,     0,      2,      0,      0,      0,      2,      512,    0,      30,     0,      {},     {}
2086,   TunicaPretaDeSeda,                  5,      8000,       4000,       30,     0,      2,      0,      0,      0,      2,      512,    0,      30,     0,      {},     {}
2087,   TunicaLaranjaDeSeda,                5,      8000,       4000,       30,     0,      2,      0,      0,      0,      2,      512,    0,      30,     0,      {},     {}
2088,   TunicaRoxaDeSeda,                   5,      8000,       4000,       30,     0,      2,      0,      0,      0,      2,      512,    0,      30,     0,      {},     {}
2089,   TunicaVerdeEscuraDeSeda,            5,      8000,       4000,       30,     0,      2,      0,      0,      0,      2,      512,    0,      30,     0,      {},     {}
2090,   CamisetaVermelha,                   5,      10,         5,          12,     0,      2,      0,      0,      0,      2,      512,    0,      0,      0,      {},     {}
2091,   CamisetaVerde,                      5,      10,         5,          12,     0,      2,      0,      0,      0,      2,      512,    0,      0,      0,      {},     {}
2092,   CamisetaAzulEscura,                 5,      10,         5,          12,     0,      2,      0,      0,      0,      2,      512,    0,      0,      0,      {},     {}
2093,   CamisetaAmarela,                    5,      10,         5,          12,     0,      2,      0,      0,      0,      2,      512,    0,      0,      0,      {},     {}
2094,   CamisetaAzulClara,                  5,      10,         5,          12,     0,      2,      0,      0,      0,      2,      512,    0,      0,      0,      {},     {}
2095,   CamisetaRosa,                       5,      10,         5,          12,     0,      2,      0,      0,      0,      2,      512,    0,      0,      0,      {},     {}
2096,   CamisetaPreta,                      5,      10,         5,          12,     0,      2,      0,      0,      0,      2,      512,    0,      0,      0,      {},     {}
2097,   CamisetaLaranja,                    5,      10,         5,          12,     0,      2,      0,      0,      0,      2,      512,    0,      0,      0,      {},     {}
2098,   CamisetaRoxa,                       5,      10,         5,          12,     0,      2,      0,      0,      0,      2,      512,    0,      0,      0,      {},     {}
2099,   CamisetaVerdeEscura,                5,      10,         5,          12,     0,      2,      0,      0,      0,      2,      512,    0,      0,      0,      {},     {}
2120,   CamisetaCurtaVermelha,              5,      10,         5,          8,      0,      2,      0,      0,      0,      2,      512,    0,      0,      0,      {},     {}
2121,   CamisetaCurtaVerde,                 5,      10,         5,          8,      0,      2,      0,      0,      0,      2,      512,    0,      0,      0,      {},     {}
2122,   CamisetaCurtaAzulEscura,            5,      10,         5,          8,      0,      2,      0,      0,      0,      2,      512,    0,      0,      0,      {},     {}
2123,   CamisetaCurtaAmarela,               5,      10,         5,          8,      0,      2,      0,      0,      0,      2,      512,    0,      0,      0,      {},     {}
2124,   CamisetaCurtaAzulClara,             5,      10,         5,          8,      0,      2,      0,      0,      0,      2,      512,    0,      0,      0,      {},     {}
2125,   CamisetaCurtaRosa,                  5,      10,         5,          8,      0,      2,      0,      0,      0,      2,      512,    0,      0,      0,      {},     {}
2126,   CamisetaCurtaPreta,                 5,      10,         5,          8,      0,      2,      0,      0,      0,      2,      512,    0,      0,      0,      {},     {}
2127,   CamisetaCurtaLaranja,               5,      10,         5,          8,      0,      2,      0,      0,      0,      2,      512,    0,      0,      0,      {},     {}
2128,   CamisetaCurtaRoxa,                  5,      10,         5,          8,      0,      2,      0,      0,      0,      2,      512,    0,      0,      0,      {},     {}
2129,   CamisetaCurtaVerdeEsc,              5,      10,         5,          8,      0,      2,      0,      0,      0,      2,      512,    0,      0,      0,      {},     {}
3001,   MantoDaMorte,                       5,      8000,       4000,       5,      0,      5,      0,      0,      0,      2,      512,    0,      30,     0,      {},     {}
3009,   ArmaduraCelestial,                  5,      100000,     30000,      2750,   0,      28,     0,      0,      0,      2,      512,    0,      60,     0,      {},     {}
3015,   AantoEncantado,                     5,      8000,       4000,       10,     0,      5,      0,      0,      0,      2,      512,    0,      30,     0,      {},     {bonus bMdef, 10;}
3094,   ArmaduraDoDragao,                   5,      300000,     150000,     150,    0,      20,     0,      100,    0,      2,      512,    0,      55,     0,      {},     {bonus bMdef, 15;}
3100,   VestidoPreto,                       5,      8000,       4000,       10,     0,      2,      0,      0,      0,      0,      512,    0,      0,      0,      {},     {}
3101,   VestidoBranco,                      5,      8000,       4000,       10,     0,      2,      0,      0,      0,      0,      512,    0,      0,      0,      {},     {}
3102,   VestidoAzul,                        5,      8000,       4000,       10,     0,      2,      0,      0,      0,      0,      512,    0,      0,      0,      {},     {}
3103,   VestidoVermelho,                    5,      8000,       4000,       10,     0,      2,      0,      0,      0,      0,      512,    0,      0,      0,      {},     {}
3104,   VestidoVerde,                       5,      8000,       4000,       10,     0,      2,      0,      0,      0,      0,      512,    0,      0,      0,      {},     {}
3105,   VestidoAmarelo,                     5,      8000,       4000,       10,     0,      2,      0,      0,      0,      0,      512,    0,      0,      0,      {},     {}
3106,   VestidoRosaChoque,                  5,      8000,       4000,       10,     0,      2,      0,      0,      0,      0,      512,    0,      0,      0,      {},     {}
3107,   VestidoRosaClaro,                   5,      8000,       4000,       10,     0,      2,      0,      0,      0,      0,      512,    0,      0,      0,      {},     {}
3260,   TopOdalisca,                        5,      10000,      5000,       13,     0,      2,      0,      2,      0,      0,      512,    0,      60,     0,      {},     {}
3301,   CamisetaFrank,                      5,      10,         5,          13,     0,      2,      0,      0,      0,      2,      512,    0,      0,      0,      {},     {}
3328,   ArmaduraCavaleiroNegro,             5,      20000,      10000,      150,    0,      27,     0,      100,    0,      2,      512,    0,      70,     0,      {},     {}
3333,   ArmaduraCavaleiroDemon,             5,      2000,       1000,       2000,   0,      20,     0,      0,      0,      2,      512,    0,      50,     0,      {},     {}
3362,   CamisaNatalina,                     5,      2000,       1000,       90,     0,      2,      0,      0,      0,      1,      512,    0,      1,      0,      {},     {}
3364,   VestidoNatalino,                    5,      2000,       1000,       180,    0,      2,      0,      3,      0,      0,      512,    0,      1,      0,      {},     {}
3367,   CamisaNatalinaVerde,                5,      2000,       1000,       90,     0,      2,      0,      0,      0,      1,      512,    0,      1,      0,      {},     {}
3369,   VestidoNatalinoVerde,               5,      2000,       1000,       180,    0,      2,      0,      3,      0,      0,      512,    0,      1,      0,      {},     {}
3909,   CamisaDeCouro1,                     5,      2000,       1000,       20,     0,      5,      0,      0,      0,      2,      512,    0,      20,     0,      {},     {}
3910,   CamisaDeCouro2,                     5,      2000,       1000,       20,     0,      5,      0,      0,      0,      2,      512,    0,      20,     0,      {},     {bonus bMaxHP, 10;}
3911,   CamisaDeCouro3,                     5,      2000,       1000,       20,     0,      6,      0,      0,      0,      2,      512,    0,      20,     0,      {},     {bonus bMaxHP, 10;}
3912,   CamisaDeCouro4,                     5,      2000,       1000,       20,     0,      6,      0,      0,      0,      2,      512,    0,      20,     0,      {},     {bonus bMaxHP, 20;}
3913,   CamisaDeCouro5,                     5,      2000,       1000,       20,     0,      6,      0,      0,      0,      2,      512,    0,      20,     0,      {},     {bonus bMaxHP, 40;}
3914,   CamisaDeCouro6,                     5,      2000,       1000,       20,     0,      6,      0,      0,      0,      2,      512,    0,      20,     0,      {},     {bonus bMaxHP, 60;}
3915,   CamisaDeCouro7,                     5,      2000,       1000,       20,     0,      6,      0,      0,      0,      2,      512,    0,      20,     0,      {},     {bonus bMaxHP, 80;}
3916,   CamisaDeCouro8,                     5,      2000,       1000,       20,     0,      6,      0,      0,      0,      2,      512,    0,      20,     0,      {},     {bonus bMaxHP, 90;}
3917,   CamisaDeCouro9,                     5,      2000,       1000,       20,     0,      6,      0,      0,      0,      2,      512,    0,      20,     0,      {},     {bonus bMaxHP, 100;}
3918,   CamisaDeCorrentes1,                 5,      15000,      1500,       800,    0,      21,     0,      0,      0,      2,      512,    0,      30,     0,      {},     {}
3919,   CamisaDeCorrentes2,                 5,      15000,      1500,       800,    0,      21,     0,      0,      0,      2,      512,    0,      30,     0,      {},     {bonus bMaxHP, 10;}
3920,   CamisaDeCorrentes3,                 5,      15000,      1500,       800,    0,      22,     0,      0,      0,      2,      512,    0,      30,     0,      {},     {bonus bMaxHP, 10;}
3921,   CamisaDeCorrentes4,                 5,      15000,      1500,       800,    0,      22,     0,      0,      0,      2,      512,    0,      30,     0,      {},     {bonus bMaxHP, 20;}
3922,   CamisaDeCorrentes5,                 5,      15000,      1500,       800,    0,      22,     0,      0,      0,      2,      512,    0,      30,     0,      {},     {bonus bMaxHP, 40;}
3923,   CamisaDeCorrentes6,                 5,      15000,      1500,       800,    0,      22,     0,      0,      0,      2,      512,    0,      30,     0,      {},     {bonus bMaxHP, 60;}
3924,   CamisaDeCorrentes7,                 5,      15000,      1500,       800,    0,      22,     0,      0,      0,      2,      512,    0,      30,     0,      {},     {bonus bMaxHP, 80;}
3925,   CamisaDeCorrentes8,                 5,      15000,      1500,       800,    0,      22,     0,      0,      0,      2,      512,    0,      30,     0,      {},     {bonus bMaxHP, 90;}
3926,   CamisaDeCorrentes9,                 5,      15000,      1500,       800,    0,      22,     0,      0,      0,      2,      512,    0,      30,     0,      {},     {bonus bMaxHP, 100;}
3927,   ArmaduraLeve1,                      5,      50000,      2500,       1200,   0,      25,     0,      0,      0,      2,      512,    0,      40,     0,      {},     {}
3928,   ArmaduraLeve2,                      5,      50000,      2500,       1200,   0,      25,     0,      0,      0,      2,      512,    0,      40,     0,      {},     {bonus bMaxHP, 10;}
3929,   ArmaduraLeve3,                      5,      50000,      2500,       1200,   0,      26,     0,      0,      0,      2,      512,    0,      40,     0,      {},     {bonus bMaxHP, 10;}
3930,   ArmaduraLeve4,                      5,      50000,      2500,       1200,   0,      26,     0,      0,      0,      2,      512,    0,      40,     0,      {},     {bonus bMaxHP, 20;}
3931,   ArmaduraLeve5,                      5,      50000,      2500,       1200,   0,      26,     0,      0,      0,      2,      512,    0,      40,     0,      {},     {bonus bMaxHP, 40;}
3932,   ArmaduraLeve6,                      5,      50000,      2500,       1200,   0,      26,     0,      0,      0,      2,      512,    0,      40,     0,      {},     {bonus bMaxHP, 60;}
3933,   ArmaduraLeve7,                      5,      50000,      2500,       1200,   0,      26,     0,      0,      0,      2,      512,    0,      40,     0,      {},     {bonus bMaxHP, 80;}
3934,   ArmaduraLeve8,                      5,      50000,      2500,       1200,   0,      26,     0,      0,      0,      2,      512,    0,      40,     0,      {},     {bonus bMaxHP, 90;}
3935,   ArmaduraLeve9,                      5,      50000,      2500,       1200,   0,      26,     0,      0,      0,      2,      512,    0,      40,     0,      {},     {bonus bMaxHP, 100;}
3936,   ArmaduraDouradaLeve1,               5,      9999000,    3000,       1200,   0,      26,     0,      0,      0,      2,      512,    0,      55,     0,      {},     {}
3937,   ArmaduraDouradaLeve2,               5,      9999000,    3000,       1200,   0,      26,     0,      0,      0,      2,      512,    0,      55,     0,      {},     {bonus bMaxHP, 10;}
3938,   ArmaduraDouradaLeve3,               5,      9999000,    3000,       1200,   0,      27,     0,      0,      0,      2,      512,    0,      55,     0,      {},     {bonus bMaxHP, 10;}
3939,   ArmaduraDouradaLeve4,               5,      9999000,    3000,       1200,   0,      27,     0,      0,      0,      2,      512,    0,      55,     0,      {},     {bonus bMaxHP, 20;}
3940,   ArmaduraDouradaLeve5,               5,      9999000,    3000,       1200,   0,      27,     0,      0,      0,      2,      512,    0,      55,     0,      {},     {bonus bMaxHP, 40;}
3941,   ArmaduraDouradaLeve6,               5,      9999000,    3000,       1200,   0,      27,     0,      0,      0,      2,      512,    0,      55,     0,      {},     {bonus bMaxHP, 60;}
3942,   ArmaduraDouradaLeve7,               5,      9999000,    3000,       1200,   0,      27,     0,      0,      0,      2,      512,    0,      55,     0,      {},     {bonus bMaxHP, 80;}
3943,   ArmaduraDouradaLeve8,               5,      9999000,    3000,       1200,   0,      27,     0,      0,      0,      2,      512,    0,      55,     0,      {},     {bonus bMaxHP, 90;}
3944,   ArmaduraDouradaLeve9,               5,      9999000,    3000,       1200,   0,      27,     0,      0,      0,      2,      512,    0,      55,     0,      {},     {bonus bMaxHP, 100;}
3945,   ArmaduraWarLord1,                   5,      100000,     3000,       2600,   0,      27,     0,      0,      0,      2,      512,    0,      50,     0,      {},     {}
3946,   ArmaduraWarLord2,                   5,      100000,     3000,       2600,   0,      27,     0,      0,      0,      2,      512,    0,      50,     0,      {},     {bonus bMaxHP, 10;}
3947,   ArmaduraWarLord3,                   5,      100000,     3000,       2600,   0,      28,     0,      0,      0,      2,      512,    0,      50,     0,      {},     {bonus bMaxHP, 10;}
3948,   ArmaduraWarLord4,                   5,      100000,     3000,       2600,   0,      28,     0,      0,      0,      2,      512,    0,      50,     0,      {},     {bonus bMaxHP, 20;}
3949,   ArmaduraWarLord5,                   5,      100000,     3000,       2600,   0,      28,     0,      0,      0,      2,      512,    0,      50,     0,      {},     {bonus bMaxHP, 40;}
3950,   ArmaduraWarLord6,                   5,      100000,     3000,       2600,   0,      28,     0,      0,      0,      2,      512,    0,      50,     0,      {},     {bonus bMaxHP, 60;}
3951,   ArmaduraWarLord7,                   5,      100000,     3000,       2600,   0,      28,     0,      0,      0,      2,      512,    0,      50,     0,      {},     {bonus bMaxHP, 80;}
3952,   ArmaduraWarLord8,                   5,      100000,     3000,       2600,   0,      28,     0,      0,      0,      2,      512,    0,      50,     0,      {},     {bonus bMaxHP, 90;}
3953,   ArmaduraWarLord9,                   5,      100000,     3000,       2600,   0,      28,     0,      0,      0,      2,      512,    0,      50,     0,      {},     {bonus bMaxHP, 100;}
3954,   ArmaduraWLDourada1,                 5,      500000,     4000,       2600,   0,      28,     0,      0,      0,      2,      512,    0,      55,     0,      {},     {}
3955,   ArmaduraWLDourada2,                 5,      500000,     4000,       2600,   0,      28,     0,      0,      0,      2,      512,    0,      55,     0,      {},     {bonus bMaxHP, 10;}
3956,   ArmaduraWLDourada3,                 5,      500000,     4000,       2600,   0,      29,     0,      0,      0,      2,      512,    0,      55,     0,      {},     {bonus bMaxHP, 10;}
3957,   ArmaduraWLDourada4,                 5,      500000,     4000,       2600,   0,      29,     0,      0,      0,      2,      512,    0,      55,     0,      {},     {bonus bMaxHP, 20;}
3958,   ArmaduraWLDourada5,                 5,      500000,     4000,       2600,   0,      29,     0,      0,      0,      2,      512,    0,      55,     0,      {},     {bonus bMaxHP, 40;}
3959,   ArmaduraWLDourada6,                 5,      500000,     4000,       2600,   0,      29,     0,      0,      0,      2,      512,    0,      55,     0,      {},     {bonus bMaxHP, 60;}
3960,   ArmaduraWLDourada7,                 5,      500000,     4000,       2600,   0,      29,     0,      0,      0,      2,      512,    0,      55,     0,      {},     {bonus bMaxHP, 80;}
3961,   ArmaduraWLDourada8,                 5,      500000,     4000,       2600,   0,      29,     0,      0,      0,      2,      512,    0,      55,     0,      {},     {bonus bMaxHP, 90;}
3962,   ArmaduraWLDourada9,                 5,      500000,     4000,       2600,   0,      29,     0,      0,      0,      2,      512,    0,      55,     0,      {},     {bonus bMaxHP, 100;}
3963,   ArmaduraCelestial1,                 5,      100000,     30000,      2750,   0,      29,     0,      0,      0,      2,      512,    0,      60,     0,      {},     {}
3964,   ArmaduraCelestial2,                 5,      100000,     30000,      2750,   0,      29,     0,      0,      0,      2,      512,    0,      60,     0,      {},     {bonus bMaxHP, 10;}
3965,   ArmaduraCelestial3,                 5,      100000,     30000,      2750,   0,      30,     0,      0,      0,      2,      512,    0,      60,     0,      {},     {bonus bMaxHP, 10;}
3966,   ArmaduraCelestial4,                 5,      100000,     30000,      2750,   0,      30,     0,      0,      0,      2,      512,    0,      60,     0,      {},     {bonus bMaxHP, 20;}
3967,   ArmaduraCelestial5,                 5,      100000,     30000,      2750,   0,      30,     0,      0,      0,      2,      512,    0,      60,     0,      {},     {bonus bMaxHP, 40;}
3968,   ArmaduraCelestial6,                 5,      100000,     30000,      2750,   0,      30,     0,      0,      0,      2,      512,    0,      60,     0,      {},     {bonus bMaxHP, 60;}
3969,   ArmaduraCelestial7,                 5,      100000,     30000,      2750,   0,      30,     0,      0,      0,      2,      512,    0,      60,     0,      {},     {bonus bMaxHP, 80;}
3970,   ArmaduraCelestial8,                 5,      100000,     30000,      2750,   0,      30,     0,      0,      0,      2,      512,    0,      60,     0,      {},     {bonus bMaxHP, 90;}
3971,   ArmaduraCelestial9,                 5,      100000,     30000,      2750,   0,      30,     0,      0,      0,      2,      512,    0,      60,     0,      {},     {bonus bMaxHP, 100;}
4060,   TunicaADM,                          5,      0,          0,          40,     0,      5,      0,      0,      0,      2,      512,    0,      0,      0,      {},     {if (getgmlevel() < 80) delitem "TunicaADM", 1;}
