// Name and Label MUST NOT exceed 23 characters (as marked)
//ID,   Name___________________,        Type,   Price,      Sell,       Weight,     ATK,    DEF,    Range,  Mbonus, Slot,   Gender, Loc,        wLV,    eLV,    View,   {UseScript},                                                            {EquipScript}
511,    GorroDeNatal,                   5,      400,        200,        20,     0,      2,      0,      0,      0,      2,      256,    0,      0,      0,      {},                                                     {}
524,    ChapeuFantasia,                 5,      1600,       800,        20,     0,      5,      0,      0,      0,      2,      256,    0,      0,      0,      {},                                                     {}
525,    CapaceteDeMineiro,              5,      800,        400,        40,     0,      4,      0,      0,      0,      2,      256,    0,      0,      0,      {},                                                     {}
543,    FaixaTradicional,               5,      800,        400,        10,     0,      3,      0,      0,      0,      2,      256,    0,      0,      0,      {},                                                     {}
544,    FaixaDeSeda,                    5,      5000,       2000,       10,     0,      3,      0,      0,      0,      2,      256,    0,      0,      0,      {},                                                     {}
615,    CapaceteDeAbobora,              5,      2000,       1000,       60,     0,      4,      0,      0,      0,      2,      256,    0,      0,      0,      {},                                                     {}
616,    ChapeuDeMachado,                5,      2000,       1000,       50,     0,      4,      0,      0,      0,      2,      256,    0,      0,      0,      {},                                                     {}
617,    ChapeuDePirata,                 5,      2000,       1000,       40,     0,      4,      0,      0,      0,      2,      256,    0,      0,      0,      {},                                                     {}
618,    Oculos,                         5,      500,        100,        20,     0,      2,      0,      0,      0,      2,      256,    0,      0,      0,      {},                                                     {}
619,    OculosDeCouro,                  5,      1000,       500,        20,     0,      3,      0,      0,      0,      2,      256,    0,      0,      0,      {},                                                     {}
620,    Coroa,                          5,      2000,       1000,       25,     0,      4,      0,      5,      0,      2,      256,    0,      0,      0,      {},                                                     {}
621,    TapaOlho,                       5,      1000,       500,        5,      0,      2,      0,      0,      0,      2,      256,    0,      0,      0,      {},                                                     {bonus bDex, -1;}
622,    Bandana,                        5,      1000,       500,        20,     0,      3,      0,      0,      0,      2,      256,    0,      0,      0,      {},                                                     {}
627,    Cartola,                        5,      2500,       1250,       30,     0,      4,      0,      2,      0,      2,      256,    0,      0,      0,      {},                                                     {}
628,    GorroDeDormir,                  5,      3000,       1500,       20,     0,      3,      0,      2,      0,      2,      256,    0,      0,      0,      {},                                                     {}
629,    ChapeuCogumeloMaligno,          5,      2500,       1250,       30,     0,      5,      0,      0,      0,      2,      256,    0,      0,      0,      {},                                                     {}
630,    ChapeuCogumelo,                 5,      3000,       1500,       30,     0,      4,      0,      0,      0,      2,      256,    0,      0,      0,      {},                                                     {}
633,    GorroElfosDoNatal,              5,      3000,       1500,       30,     0,      3,      0,      2,      0,      2,      256,    0,      0,      0,      {},                                                     {}
634,    MascaraDeMadeira,               5,      2500,       1250,       50,     0,      7,      0,      0,      0,      2,      256,    0,      0,      0,      {},                                                     {}
636,    ElmoDoLordeDaGuerra,            5,      30000,      3000,       900,    0,      18,     0,      0,      0,      2,      256,    0,      50,     0,      {},                                                     {}
637,    ElmoDoCavaleiroAlado,           5,      20000,      2000,       600,    0,      15,     0,      0,      0,      2,      256,    0,      40,     0,      {},                                                     {}
638,    CapaceteDaInfantaria,           5,      15000,      1500,       400,    0,      15,     0,      0,      0,      2,      256,    0,      30,     0,      {},                                                     {}
639,    ElmoDasCruzadas,                5,      25000,      2500,       1500,   0,      18,     0,      0,      0,      2,      256,    0,      45,     0,      {},                                                     {bonus bAgi, -1;}
643,    ChapeuBrancoVaqueiro,           5,      1800,       900,        30,     0,      6,      0,      0,      0,      2,      256,    0,      0,      0,      {},                                                     {}
644,    ChapeuPretoVaqueiro,            5,      1800,       900,        30,     0,      6,      0,      0,      0,      2,      256,    0,      0,      0,      {},                                                     {}
646,    CoroaReal,                      5,      5000,       1000,       240,    0,      4,      0,      0,      0,      2,      256,    0,      0,      0,      {},                                                     {}
647,    BoneDedesenvolvedor,            5,      2000,       500,        20,     0,      5,      0,      5,      0,      2,      256,    0,      0,      0,      {},                                                     {}
654,    Bone,                           5,      2000,       500,        20,     0,      5,      0,      0,      0,      2,      256,    0,      0,      0,      {},                                                     {}
656,    ChapeuDeServo,                  5,      500,        100,        20,     0,      2,      0,      0,      0,      2,      256,    0,      0,      0,      {},                                                     {}
675,    ChapeuDeGraduacao,              5,      1000,       250,        20,     0,      2,      0,      0,      0,      2,      256,    0,      0,      0,      {},                                                     {}
678,    MascaraNoh,                     5,      7000,       1000,       18,     0,      3,      0,      1,      0,      2,      256,    0,      0,      0,      {},                                                     {}
679,    MascaraDemoniaca,               5,      10000,      5000,       23,     0,      3,      0,      5,      0,      2,      256,    0,      0,      0,      {},                                                     {}
721,    CoroaDosSacerdotes,             5,      20000,      5000,       400,    0,      4,      0,      20,     0,      2,      256,    0,      0,      0,      {},                                                     {bonus bMaxSP, 20;}
722,    CapaceteDeFossil,               5,      15000,      3000,       250,    0,      7,      0,      10,     0,      2,      256,    0,      0,      0,      {},                                                     {bonus bMdef, 20;}
723,    ChapeuDoDeserto,                5,      5000,       1000,       20,     0,      3,      0,      0,      0,      2,      256,    0,      0,      0,      {},                                                     {}
724,    FaixaDeAlgodao,                 5,      3000,       500,        5,      0,      2,      0,      0,      0,      2,      256,    0,      0,      0,      {},                                                     {}
725,    BoneGM,                         5,      0,          0,          20,     0,      5,      0,      5,      0,      2,      256,    0,      0,      0,      {},                                                     {if (getgmlevel() < 40) delitem "BoneGM", 1;}
751,    HasteRosa,                      5,      5000,       1000,       5,      0,      1,      0,      1,      0,      2,      256,    0,      0,      0,      {},                                                     {}
752,    ChapeuFofinho,                  5,      7000,       2000,       10,     0,      2,      0,      0,      0,      2,      256,    0,      0,      0,      {},                                                     {}
759,    ElmoDePaladino,                 5,      7000,       2000,       500,    0,      19,     0,      0,      0,      2,      256,    0,      70,     0,      {},                                                     {}
760,    ElmoDoSoberano,                 5,      7000,       2000,       500,    0,      20,     0,      0,      0,      2,      256,    0,      70,     0,      {},                                                     {bonus bLuk, 1;}
761,    ElmoDoDeserto,                  5,      200000,     20000,      2000,   0,      20,     0,      0,      0,      2,      256,    0,      70,     0,      {},                                                     {bonus bAgi, 1;}
764,    ChapeuDeMarinheiro,             5,      7000,       2000,       10,     0,      2,      0,      0,      0,      2,      256,    0,      0,      0,      {},                                                     {}
765,    ChapeuDeCapitao,                5,      7000,       2000,       10,     0,      2,      0,      0,      0,      2,      256,    0,      0,      0,      {},                                                     {}
766,    ElmoDeTerranite,                5,      7000,       2000,       10,     0,      2,      0,      0,      0,      2,      256,    0,      0,      0,      {},                                                     {}
769,    MascaraGuyFawkes,               5,      7000,       2000,       10,     0,      2,      0,      0,      0,      2,      256,    0,      0,      0,      {},                                                     {}
770,    ChapeuDaFloresta,               5,      7000,       2000,       10,     0,      2,      0,      0,      0,      2,      256,    0,      0,      0,      {},                                                     {}
781,    MascaraVoodoo,                  5,      7000,       2000,       10,     0,      2,      0,      0,      0,      2,      256,    0,      0,      0,      {},                                                     {}
1206,   GorroDePapaiNoel,               5,      1000,       500,        20,     0,      5,      0,      2,      0,      2,      256,    0,      0,      0,      {},                                                     {}
1203,   ChapeuDePatrulheiro,            5,      1000,       500,        20,     0,      4,      0,      0,      0,      2,      256,    0,      0,      0,      {},                                                     {}
1204,   ChapeuChifresDeRena,            5,      1000,       500,        15,     0,      4,      0,      2,      0,      2,      256,    0,      0,      0,      {},                                                     {}
1205,   ChapeuArvoreNatal,              5,      2000,       1000,       20,     0,      2,      0,      4,      0,      2,      256,    0,      0,      0,      {},                                                     {}
1214,   OrelhasDeCoelho,                5,      5000,       2000,       20,     0,      1,      0,      1,      0,      2,      256,    0,      0,      0,      {},                                                     {}
1216,   CabecaDeMouboo,                 5,      10,         1,          80,     0,      6,      0,      0,      0,      2,      256,    0,      0,      0,      {},                                                     {}
1217,   OrelhasKatzeur,                 5,      5000,       2000,       20,     0,      1,      0,      1,      0,      2,      256,    0,      0,      0,      {},                                                     {bonus bAgi, 3; bonus bDex, 1;}
1218,   SacoDePapel,                    5,      1000,       5,          10,     0,      1,      0,      0,      0,      2,      256,    0,      0,      0,      {},                                                     {bonus bAgi, -1;}
1219,   CabecaDeMoubootauro,            5,      10,         1,          80,     0,      6,      0,      0,      0,      2,      256,    0,      0,      0,      {},                                                     {}
1220,   BunchOfParsley,                 5,      3,          1,          1,      0,      1,      0,      0,      0,      2,      256,    0,      0,      0,      {},                                                     {bonus bDeaf, 1;}
1221,   MascaraDeEsqueleto,             5,      10000,      5000,       150,    0,      2,      0,      5,      0,      2,      256,    0,      0,      0,      {},                                                     {}
1242,   SnowGoggles,                    5,      7500,       5000,       10,     0,      5,      0,      0,      0,      2,      256,    0,      0,      0,      {},                                                     {}
1243,   PaperPartyHat,                  5,      10,         5,          1,      0,      1,      0,      0,      0,      2,      256,    0,      0,      0,      {},                                                     {}
1247,   OculosCoracao,                  5,      7500,       5000,       20,     0,      1,      0,      5,      0,      2,      256,    0,      0,      0,      {},                                                     {}
1255,   OrelhasDeLebre,                 5,      7000,       5000,       20,     0,      1,      0,      4,      0,      2,      256,    0,      1,      0,      {},                                                     {}
1256,   HatCascaOvo,                    5,      5000,       2500,       15,     0,      2,      0,      0,      0,      2,      256,    0,      1,      0,      {},                                                     {}
1277,   MascaBoboCorte,                 5,      4000,       2000,       15,     0,      2,      0,      0,      0,      2,      256,    0,      1,      0,      {},                                                     {}
1278,   ChapeuBruxa,                    5,      7000,       2500,       15,     0,      2,      0,      0,      0,      2,      256,    0,      1,      0,      {},                                                     {}
1994,   ChapeuBruxo,                    5,      5000,       2500,       20,     0,      5,      0,      5,      0,      2,      256,    0,      1,      0,      {},                                                     {bonus bInt, 3;}
2130,   ChapeuDesertoVermelho,          5,      5000,       1000,       20,     0,      3,      0,      0,      0,      2,      256,    0,      0,      0,      {},                                                     {}
2131,   ChapeuDesertoVerde,             5,      5000,       1000,       20,     0,      3,      0,      0,      0,      2,      256,    0,      0,      0,      {},                                                     {}
2132,   ChapeuDesertoAzulEsc,           5,      5000,       1000,       20,     0,      3,      0,      0,      0,      2,      256,    0,      0,      0,      {},                                                     {}
2133,   ChapeuDesertoAmarelo,           5,      5000,       1000,       20,     0,      3,      0,      0,      0,      2,      256,    0,      0,      0,      {},                                                     {}
2134,   ChapeuDesertoAzulCl,            5,      5000,       1000,       20,     0,      3,      0,      0,      0,      2,      256,    0,      0,      0,      {},                                                     {}
2135,   ChapeuDesertoRosa,              5,      5000,       1000,       20,     0,      3,      0,      0,      0,      2,      256,    0,      0,      0,      {},                                                     {}
2136,   ChapeuDesertoPreto,             5,      5000,       1000,       20,     0,      3,      0,      0,      0,      2,      256,    0,      0,      0,      {},                                                     {}
2137,   ChapeuDesertoLaranja,           5,      5000,       1000,       20,     0,      3,      0,      0,      0,      2,      256,    0,      0,      0,      {},                                                     {}
2138,   ChapeuDesertoRoxo,              5,      5000,       1000,       20,     0,      3,      0,      0,      0,      2,      256,    0,      0,      0,      {},                                                     {}
2139,   ChapeudesertoVerdeEsc,          5,      5000,       1000,       20,     0,      3,      0,      0,      0,      2,      256,    0,      0,      0,      {},                                                     {}
2140,   FaixaTVermelha,                 5,      3000,       500,        5,      0,      2,      0,      0,      0,      2,      256,    0,      0,      0,      {},                                                     {}
2141,   FaixaTVerde,                    5,      3000,       500,        5,      0,      2,      0,      0,      0,      2,      256,    0,      0,      0,      {},                                                     {}
2142,   FaixaTAzulescura,               5,      3000,       500,        5,      0,      2,      0,      0,      0,      2,      256,    0,      0,      0,      {},                                                     {}
2143,   FaixaTAmarela,                  5,      3000,       500,        5,      0,      2,      0,      0,      0,      2,      256,    0,      0,      0,      {},                                                     {}
2144,   FaixaTAzulclara,                5,      3000,       500,        5,      0,      2,      0,      0,      0,      2,      256,    0,      0,      0,      {},                                                     {}
2145,   FaixaTRosa,                     5,      3000,       500,        5,      0,      2,      0,      0,      0,      2,      256,    0,      0,      0,      {},                                                     {}
2146,   FaixaTPreta,                    5,      3000,       500,        5,      0,      2,      0,      0,      0,      2,      256,    0,      0,      0,      {},                                                     {}
2147,   FaixaTLaranja,                  5,      3000,       500,        5,      0,      2,      0,      0,      0,      2,      256,    0,      0,      0,      {},                                                     {}
2148,   FaixaTRoxa,                     5,      3000,       500,        5,      0,      2,      0,      0,      0,      2,      256,    0,      0,      0,      {},                                                     {}
2149,   FaixaTVerdeEscura,              5,      3000,       500,        5,      0,      2,      0,      0,      0,      2,      256,    0,      0,      0,      {},                                                     {}
//2180, PaperHatVermelho,               5,      10,         5,          1,      0,      1,      0,      0,      0,      2,      256,    0,      1,      0,      {},                                                     {} 
//2181, PaperHatVerde,                  5,      10,         5,          1,      0,      1,      0,      0,      0,      2,      256,    0,      1,      0,      {},                                                     {} 
//2182, PaperHatAzulEscuro,             5,      10,         5,          1,      0,      1,      0,      0,      0,      2,      256,    0,      1,      0,      {},                                                     {} 
//2183, PaperHatAmarelo,                5,      10,         5,          1,      0,      1,      0,      0,      0,      2,      256,    0,      1,      0,      {},                                                     {} 
//2184, PaperHatAzulclaro,              5,      10,         5,          1,      0,      1,      0,      0,      0,      2,      256,    0,      1,      0,      {},                                                     {} 
//2185, PaperHatRosa,                   5,      10,         5,          1,      0,      1,      0,      0,      0,      2,      256,    0,      1,      0,      {},                                                     {} 
//2186, PaperHatPreto,                  5,      10,         5,          1,      0,      1,      0,      0,      0,      2,      256,    0,      1,      0,      {},                                                     {} 
//2187, PaperHatLaranja,                5,      10,         5,          1,      0,      1,      0,      0,      0,      2,      256,    0,      1,      0,      {},                                                     {} 
//2188, PaperHatRoxo,                   5,      10,         5,          1,      0,      1,      0,      0,      0,      2,      256,    0,      1,      0,      {},                                                     {} 
//2189, PaperHatVerdeEscuro,            5,      10,         5,          1,      0,      1,      0,      0,      0,      2,      256,    0,      1,      0,      {},                                                     {} 
2190,   orelhasVermelhasLebre,          5,      7000,       5000,       15,     0,      1,      0,      4,      0,      2,      256,    0,      1,      0,      {},                                                     {}
2191,   OrelhasVersdeLebre,             5,      7000,       5000,       15,     0,      1,      0,      4,      0,      2,      256,    0,      1,      0,      {},                                                     {}
2192,   OrelhasAzulEscLebre,            5,      7000,       5000,       15,     0,      1,      0,      4,      0,      2,      256,    0,      1,      0,      {},                                                     {}
2193,   OrelhasAmarelasLebre,           5,      7000,       5000,       15,     0,      1,      0,      4,      0,      2,      256,    0,      1,      0,      {},                                                     {}
2194,   OrelhasAzulClLebre,             5,      7000,       5000,       15,     0,      1,      0,      4,      0,      2,      256,    0,      1,      0,      {},                                                     {}
2195,   OrelhasRosasLebre,              5,      7000,       5000,       15,     0,      1,      0,      4,      0,      2,      256,    0,      1,      0,      {},                                                     {}
2196,   OrelhasPretasLebre,             5,      7000,       5000,       15,     0,      1,      0,      4,      0,      2,      256,    0,      1,      0,      {},                                                     {}
2197,   OrelhasLaranjasLebre,           5,      7000,       5000,       15,     0,      1,      0,      4,      0,      2,      256,    0,      1,      0,      {},                                                     {}
2198,   OrelhasRoxasLebre,              5,      7000,       5000,       15,     0,      1,      0,      4,      0,      2,      256,    0,      1,      0,      {},                                                     {}
2199,   OrelhasVerEscurasLebre,         5,      7000,       5000,       15,     0,      1,      0,      4,      0,      2,      256,    0,      1,      0,      {},                                                     {}
2200,   RedWizardHat,                   5,      5000,       2500,       20,     0,      5,      0,      5,      0,      2,      256,    0,      1,      0,      {},                                                     {bonus bInt, 3;}
2201,   GreenWizardHat,                 5,      5000,       2500,       20,     0,      5,      0,      5,      0,      2,      256,    0,      1,      0,      {},                                                     {bonus bInt, 3;}
2202,   DarkBlueWizardHat,              5,      5000,       2500,       20,     0,      5,      0,      5,      0,      2,      256,    0,      1,      0,      {},                                                     {bonus bInt, 3;}
2203,   YellowWizardHat,                5,      5000,       2500,       20,     0,      5,      0,      5,      0,      2,      256,    0,      1,      0,      {},                                                     {bonus bInt, 3;}
2204,   LightBlueWizardHat,             5,      5000,       2500,       20,     0,      5,      0,      5,      0,      2,      256,    0,      1,      0,      {},                                                     {bonus bInt, 3;}
2205,   PinkWizardHat,                  5,      5000,       2500,       20,     0,      5,      0,      5,      0,      2,      256,    0,      1,      0,      {},                                                     {bonus bInt, 3;}
2206,   BlackWizardHat,                 5,      5000,       2500,       20,     0,      5,      0,      5,      0,      2,      256,    0,      1,      0,      {},                                                     {bonus bInt, 3;}
2207,   OrangeWizardHat,                5,      5000,       2500,       20,     0,      5,      0,      5,      0,      2,      256,    0,      1,      0,      {},                                                     {bonus bInt, 3;}
2208,   PurpleWizardHat,                5,      5000,       2500,       20,     0,      5,      0,      5,      0,      2,      256,    0,      1,      0,      {},                                                     {bonus bInt, 3;}
2209,   DarkGreenWizardHat,             5,      5000,       2500,       20,     0,      5,      0,      5,      0,      2,      256,    0,      1,      0,      {},                                                     {bonus bInt, 3;}
2210,   RedBowlerHat,                   5,      2500,       1250,       30,     0,      10,     0,      2,      0,      2,      256,    0,      0,      0,      {},                                                     {}
2211,   GreenBowlerHat,                 5,      2500,       1250,       30,     0,      10,     0,      2,      0,      2,      256,    0,      0,      0,      {},                                                     {}
2212,   DarkBlueBowlerHat,              5,      2500,       1250,       30,     0,      10,     0,      2,      0,      2,      256,    0,      0,      0,      {},                                                     {}
2213,   YellowBowlerHat,                5,      2500,       1250,       30,     0,      10,     0,      2,      0,      2,      256,    0,      0,      0,      {},                                                     {}
2214,   LightBlueBowlerHat,             5,      2500,       1250,       30,     0,      10,     0,      2,      0,      2,      256,    0,      0,      0,      {},                                                     {}
2215,   PinkBowlerHat,                  5,      2500,       1250,       30,     0,      10,     0,      2,      0,      2,      256,    0,      0,      0,      {},                                                     {}
2216,   BlackBowlerHat,                 5,      2500,       1250,       30,     0,      10,     0,      2,      0,      2,      256,    0,      0,      0,      {},                                                     {}
2217,   OrangeBowlerHat,                5,      2500,       1250,       30,     0,      10,     0,      2,      0,      2,      256,    0,      0,      0,      {},                                                     {}
2218,   PurpleBowlerHat,                5,      2500,       1250,       30,     0,      10,     0,      2,      0,      2,      256,    0,      0,      0,      {},                                                     {}
2219,   DarkGreenBowlerHat,             5,      2500,       1250,       30,     0,      10,     0,      2,      0,      2,      256,    0,      0,      0,      {},                                                     {}
2510,   OrelhasGatoVermelha,            5,      4000,       2000,       20,     0,      1,      0,      1,      0,      2,      256,    0,      0,      0,      {},                                                     {bonus bAgi, 3;}
2511,   OrelhasGatoVerde,               5,      4000,       2000,       20,     0,      1,      0,      1,      0,      2,      256,    0,      0,      0,      {},                                                     {bonus bAgi, 3;}
2512,   OrelhasGatoAzulEsc,             5,      4000,       2000,       20,     0,      1,      0,      1,      0,      2,      256,    0,      0,      0,      {},                                                     {bonus bAgi, 3;}
2513,   OrelhasGatoAmarela,             5,      4000,       2000,       20,     0,      1,      0,      1,      0,      2,      256,    0,      0,      0,      {},                                                     {bonus bAgi, 3;}
2514,   OrelhasGatoAzulCl,              5,      4000,       2000,       20,     0,      1,      0,      1,      0,      2,      256,    0,      0,      0,      {},                                                     {bonus bAgi, 3;}
2515,   OrelhasGatoRosa,                5,      4000,       2000,       20,     0,      1,      0,      1,      0,      2,      256,    0,      0,      0,      {},                                                     {bonus bAgi, 3;}
2516,   OrelhasGatoPreta,               5,      4000,       2000,       20,     0,      1,      0,      1,      0,      2,      256,    0,      0,      0,      {},                                                     {bonus bAgi, 3;}
2517,   OrelhasGatoLaranja,             5,      4000,       2000,       20,     0,      1,      0,      1,      0,      2,      256,    0,      0,      0,      {},                                                     {bonus bAgi, 3;}
2518,   OrelhasGatoRoxa,                5,      4000,       2000,       20,     0,      1,      0,      1,      0,      2,      256,    0,      0,      0,      {},                                                     {bonus bAgi, 3;}
2519,   OrelhasGatoVerdeEsc,            5,      4000,       2000,       20,     0,      1,      0,      1,      0,      2,      256,    0,      0,      0,      {},                                                     {bonus bAgi, 3;}
2999,   BowlerHat,                      5,      2500,       1250,       30,     0,      10,     0,      2,      0,      2,      256,    0,      0,      0,      {},                                                     {}
3000,   PirateHatBR,                    5,      2000,       1000,       40,     0,      4,      0,      0,      0,      2,      256,    0,      0,      0,      {},                                                     {}
3002,   CapuzDaMorte,                   5,      2000,       1000,       25,     0,      4,      0,      0,      0,      2,      256,    0,      0,      0,      {},                                                     {}
3007,   CapaceteDeLord,                 5,      30000,      3000,       1500,   0,      20,     0,      0,      0,      2,      256,    0,      70,     0,      {},                                                     {}
3014,   OculosOlhoDragao,               5,      1000,       500,        15,     0,      2,      0,      0,      0,      2,      256,    0,      0,      0,      {},                                                     {bonus bDex, 3;}
3018,   AFKCap,                         5,      2000,       500,        10,     0,      5,      0,      5,      0,      2,      256,    0,      0,      0,      {},                                                     {}
3035,   CartolaCetim,                   5,      2500,       1250,       10,     0,      1,      0,      2,      0,      2,      256,    0,      0,      0,      {},                                                     {}
3036,   Bordadof,                       5,      500,        250,        30,     0,      5,      0,      2,      0,      2,      256,    0,      0,      0,      {},                                                     {}
3037,   Bordadol,                       5,      500,        250,        30,     0,      5,      0,      2,      0,      2,      256,    0,      0,      0,      {},                                                     {}
3038,   Bordadom,                       5,      500,        250,        30,     0,      5,      0,      2,      0,      2,      256,    0,      0,      0,      {},                                                     {}
3039,   Bordadop,                       5,      500,        250,        30,     0,      5,      0,      2,      0,      2,      256,    0,      0,      0,      {},                                                     {}
3040,   GorroDeCouro1,                  5,      1500,       750,        75,     0,      6,      0,      2,      0,      2,      256,    0,      0,      0,      {},                                                     {}
3041,   GorroDeCouro2,                  5,      1500,       750,        75,     0,      6,      0,      2,      0,      2,      256,    0,      0,      0,      {},                                                     {}
3042,   GorroDeCerebro,                 5,      1500,       750,        35,     0,      2,      0,      2,      0,      2,      256,    0,      0,      0,      {},                                                     {}
3043,   GorroDeDuende,                  5,      400,        200,        200,    0,      2,      0,      0,      0,      2,      256,    0,      0,      0,      {},                                                     {}
3049,   MascaraNinja,                   5,      30000,      15000,      15,     0,      3,      0,      1,      0,      2,      256,    0,      0,      0,      {},                                                     {}
3050,   BoneDeDoador2010,               5,      100000,     50000,      15,     0,      3,      0,      1,      0,      2,      256,    0,      0,      0,      {},                                                     {}
3065,   ChapeuMagico,                   5,      3000,       1500,       300,    0,      5,      0,      2,      0,      2,      256,    0,      0,      0,      {},                                                     {}
3066,   MascaraNinjaEstilizada,         5,      30000,      15000,      15,     0,      3,      0,      1,      0,      2,      256,    0,      0,      0,      {},                                                     {}
3067,   ADMCap,                         5,      0,          0,          10,     0,      5,      0,      5,      0,      2,      256,    0,      0,      0,      {},                                                     {if (getgmlevel() < 80) delitem "ADMCap", 1;}
3068,   BarbaComAureola,                5,      400,        200,        200,    0,      2,      0,      0,      0,      2,      256,    0,      0,      0,      {},                                                     {}
3070,   HasteRoxa,                      5,      5000,       1000,       5,      0,      1,      0,      1,      0,      2,      256,    0,      0,      0,      {},                                                     {}
3092,   GorroDaFloresta,                5,      2000,       1000,       25,     0,      6,      0,      0,      0,      2,      256,    0,      0,      0,      {},                                                     {}
3093,   MascaraNecromante,              5,      10000,      5000,       25,     0,      15,     0,      0,      0,      2,      256,    0,      30,     0,      {},                                                     {bonus bMdef, 15;}
3096,   ElmoDoDragao,                   5,      200000,     100000,     1000,   0,      20,     0,      50,     0,      2,      256,    0,      70,     0,      {},                                                     {bonus bMdef, 15;}
3108,   BoneDeDoador2011,               5,      100000,     50000,      15,     0,      3,      0,      1,      0,      2,      256,    0,      0,      0,      {},                                                     {}
3188,   ElmoDoArcanjo,                  5,      20000,      2000,       600,    0,      15,     0,      0,      0,      2,      256,    0,      30,     0,      {},                                                     {}
3194,   ChapeuPresenteVermelho,         5,      2000,       1000,       60,     0,      1,      0,      0,      0,      2,      256,    0,      0,      0,      {},                                                     {}
3195,   ChapeuPresenteVerde,            5,      2000,       1000,       60,     0,      1,      0,      0,      0,      2,      256,    0,      0,      0,      {},                                                     {}
3196,   ChapeuPresenteAzul,             5,      2000,       1000,       60,     0,      1,      0,      0,      0,      2,      256,    0,      0,      0,      {},                                                     {}
3197,   ChapeuPresenteAmarelo,          5,      2000,       1000,       60,     0,      1,      0,      0,      0,      2,      256,    0,      0,      0,      {},                                                     {}
3198,   ChapeuPresenteRosa,             5,      2000,       1000,       60,     0,      1,      0,      0,      0,      2,      256,    0,      0,      0,      {},                                                     {}
3219,   OrelhaUrso,                     5,      2000,       1000,       75,     0,      1,      0,      0,      0,      2,      256,    0,      0,      0,      {},                                                     {}
3220,   ElmoTaurus,                     5,      200000,     20000,      2000,   0,      20,     0,      0,      0,      2,      256,    0,      70,     0,      {},                                                     {bonus bStr, 1;}
3221,   ElmoSamurai,                    5,      200000,     20000,      2000,   0,      20,     0,      0,      0,      2,      256,    0,      90,     0,      {},                                                     {bonus bDex, 1;}
3222,   VeuDeNoiva,                     5,      50000,      20000,      200,    0,      5,      0,      5,      0,      0,      256,    0,      0,      0,      {},                                                     {}
3223,   GorroSono,                      5,      500,        250,        20,     0,      1,      0,      2,      0,      2,      256,    0,      0,      0,      {},                                                     {}
3224,   BonePascoa,                     5,      2000,       500,        30,     0,      1,      0,      5,      0,      2,      256,    0,      0,      0,      {},                                                     {}
3230,   HatCascaOvo1_1,                 5,      7000,       2500,       15,     0,      2,      0,      0,      0,      2,      256,    0,      1,      0,      {},                                                     {}
3231,   HatCascaOvo1_2,                 5,      7000,       2500,       15,     0,      2,      0,      0,      0,      2,      256,    0,      1,      0,      {},                                                     {}
3232,   HatCascaOvo1_3,                 5,      7000,       2500,       15,     0,      2,      0,      0,      0,      2,      256,    0,      1,      0,      {},                                                     {}
3233,   HatCascaOvo1_4,                 5,      7000,       2500,       15,     0,      2,      0,      0,      0,      2,      256,    0,      1,      0,      {},                                                     {}
3234,   HatCascaOvo1_5,                 5,      7000,       2500,       15,     0,      2,      0,      0,      0,      2,      256,    0,      1,      0,      {},                                                     {}
3235,   HatCascaOvo1_6,                 5,      7000,       2500,       15,     0,      2,      0,      0,      0,      2,      256,    0,      1,      0,      {},                                                     {}
3236,   HatCascaOvo2_1,                 5,      7000,       2500,       15,     0,      2,      0,      0,      0,      2,      256,    0,      1,      0,      {},                                                     {}
3237,   HatCascaOvo2_2,                 5,      7000,       2500,       15,     0,      2,      0,      0,      0,      2,      256,    0,      1,      0,      {},                                                     {}
3238,   HatCascaOvo2_3,                 5,      7000,       2500,       15,     0,      2,      0,      0,      0,      2,      256,    0,      1,      0,      {},                                                     {}
3239,   HatCascaOvo2_4,                 5,      7000,       2500,       15,     0,      2,      0,      0,      0,      2,      256,    0,      1,      0,      {},                                                     {}
3240,   HatCascaOvo2_5,                 5,      7000,       2500,       15,     0,      2,      0,      0,      0,      2,      256,    0,      1,      0,      {},                                                     {}
3241,   HatCascaOvo2_6,                 5,      7000,       2500,       15,     0,      2,      0,      0,      0,      2,      256,    0,      1,      0,      {},                                                     {}
3242,   HatCascaOvo3_1,                 5,      7000,       2500,       15,     0,      2,      0,      0,      0,      2,      256,    0,      1,      0,      {},                                                     {}
3243,   HatCascaOvo3_2,                 5,      7000,       2500,       15,     0,      2,      0,      0,      0,      2,      256,    0,      1,      0,      {},                                                     {}
3244,   HatCascaOvo3_3,                 5,      7000,       2500,       15,     0,      2,      0,      0,      0,      2,      256,    0,      1,      0,      {},                                                     {}
3245,   HatCascaOvo3_4,                 5,      7000,       2500,       15,     0,      2,      0,      0,      0,      2,      256,    0,      1,      0,      {},                                                     {}
3246,   HatCascaOvo3_5,                 5,      7000,       2500,       15,     0,      2,      0,      0,      0,      2,      256,    0,      1,      0,      {},                                                     {}
3247,   HatCascaOvo3_6,                 5,      7000,       2500,       15,     0,      2,      0,      0,      0,      2,      256,    0,      1,      0,      {},                                                     {}
3248,   HatCascaOvo4_1,                 5,      7000,       2500,       15,     0,      2,      0,      0,      0,      2,      256,    0,      1,      0,      {},                                                     {}
3249,   HatCascaOvo4_2,                 5,      7000,       2500,       15,     0,      2,      0,      0,      0,      2,      256,    0,      1,      0,      {},                                                     {}
3250,   HatCascaOvo4_3,                 5,      7000,       2500,       15,     0,      2,      0,      0,      0,      2,      256,    0,      1,      0,      {},                                                     {}
3251,   HatCascaOvo4_4,                 5,      7000,       2500,       15,     0,      2,      0,      0,      0,      2,      256,    0,      1,      0,      {},                                                     {}
3252,   HatCascaOvo4_5,                 5,      7000,       2500,       15,     0,      2,      0,      0,      0,      2,      256,    0,      1,      0,      {},                                                     {}
3253,   HatCascaOvo4_6,                 5,      7000,       2500,       15,     0,      2,      0,      0,      0,      2,      256,    0,      1,      0,      {},                                                     {}
3254,   HatCascaOvo5_1,                 5,      7000,       2500,       15,     0,      2,      0,      0,      0,      2,      256,    0,      1,      0,      {},                                                     {}
3255,   HatCascaOvo5_2,                 5,      7000,       2500,       15,     0,      2,      0,      0,      0,      2,      256,    0,      1,      0,      {},                                                     {}
3256,   HatCascaOvo5_3,                 5,      7000,       2500,       15,     0,      2,      0,      0,      0,      2,      256,    0,      1,      0,      {},                                                     {}
3257,   HatCascaOvo5_4,                 5,      7000,       2500,       15,     0,      2,      0,      0,      0,      2,      256,    0,      1,      0,      {},                                                     {}
3258,   HatCascaOvo5_5,                 5,      7000,       2500,       15,     0,      2,      0,      0,      0,      2,      256,    0,      1,      0,      {},                                                     {}
3259,   HatCascaOvo5_6,                 5,      7000,       2500,       15,     0,      2,      0,      0,      0,      2,      256,    0,      1,      0,      {},                                                     {}
3263,   CoroaFarao,                     5,      7500,       3750,       200,    0,      15,     0,      10,     0,      2,      256,    0,      90,     0,      {},                                                     {bonus bMdef, 15;}
3264,   CoroaFaraoNova,                 5,      10,         5,          200,    0,      1,      0,      0,      0,      2,      256,    0,      1,      0,      {},                                                     {}
3265,   CoroaFaraoVelha,                5,      10,         5,          200,    0,      1,      0,      0,      0,      2,      256,    0,      1,      0,      {},                                                     {}
3266,   MascaraMorte,                   5,      5000,       2500,       110,    0,      2,      0,      0,      0,      2,      256,    0,      60,     0,      {},                                                     {}
3300,   BoneFrank,                      5,      2000,       500,        30,     0,      1,      0,      5,      0,      2,      256,    0,      0,      0,      {},                                                     {}
3306,   MascaraAlmaTriste,              5,      2000,       500,        30,     0,      1,      0,      5,      0,      2,      256,    0,      0,      0,      {},                                                     {}
3307,   MascaraAranha,                  5,      2000,       500,        30,     0,      1,      0,      5,      0,      2,      256,    0,      0,      0,      {},                                                     {}
3308,   MascaraCiclope,                 5,      2000,       500,        30,     0,      1,      0,      5,      0,      2,      256,    0,      0,      0,      {},                                                     {}
3309,   MascaraCorey,                   5,      2000,       500,        30,     0,      1,      0,      5,      0,      2,      256,    0,      0,      0,      {},                                                     {}
3310,   MascaraEspantalhoCabelo,        5,      2000,       500,        30,     0,      1,      0,      5,      0,      2,      256,    0,      0,      0,      {},                                                     {}
3311,   MascaraFrank,                   5,      2000,       500,        30,     0,      1,      0,      5,      0,      2,      256,    0,      0,      0,      {},                                                     {}
3312,   MascaraGarras,                  5,      2000,       500,        30,     0,      1,      0,      5,      0,      2,      256,    0,      0,      0,      {},                                                     {}
3313,   MascaraJasoon,                  5,      2000,       500,        30,     0,      1,      0,      5,      0,      2,      256,    0,      0,      0,      {},                                                     {}
3314,   MascaraJoey,                    5,      2000,       500,        30,     0,      1,      0,      5,      0,      2,      256,    0,      0,      0,      {},                                                     {}
3315,   MascaraMonstroPedra,            5,      2000,       500,        30,     0,      1,      0,      5,      0,      2,      256,    0,      0,      0,      {},                                                     {}
3316,   MascaraNinja,                   5,      2000,       500,        30,     0,      1,      0,      5,      0,      2,      256,    0,      0,      0,      {},                                                     {}
3317,   MascaraFerro,                   5,      2000,       500,        30,     0,      1,      0,      5,      0,      2,      256,    0,      0,      0,      {},                                                     {}
3318,   MascaraEspantalho,              5,      2000,       500,        30,     0,      1,      0,      5,      0,      2,      256,    0,      0,      0,      {},                                                     {}
3319,   MascaraLobisomen,               5,      2000,       500,        30,     0,      1,      0,      5,      0,      2,      256,    0,      0,      0,      {},                                                     {}
3320,   MascaraFaces,                   5,      2000,       500,        30,     0,      1,      0,      5,      0,      2,      256,    0,      0,      0,      {},                                                     {}
3321,   MascaraAboboraJack,             5,      2000,       500,        30,     0,      1,      0,      5,      0,      2,      256,    0,      0,      0,      {},                                                     {}
3331,   CapaceteCavaleiroNegro,         5,      20000,      10000,      1000,   0,      20,     0,      50,     0,      2,      256,    0,      70,     0,      {},                                                     {}
3336,   CapaceteCavaleiroDemon,         5,      2000,       1000,       1000,   0,      18,     0,      50,     0,      2,      256,    0,      50,     0,      {},                                                     {}
3360,   CabecaRena,                     5,      1000,       500,        80,     0,      2,      0,      0,      0,      2,      256,    0,      1,      0,      {},                                                     {}
3361,   CabecaUrso,                     5,      1000,       500,        80,     0,      2,      0,      0,      0,      2,      256,    0,      1,      0,      {},                                                     {}
3366,   GorroNatalinoVermelho,          5,      800,        400,        20,     0,      2,      0,      0,      0,      2,      256,    0,      0,      0,      {},                                                     {}
3371,   GorroNatalinoVerde,             5,      800,        400,        20,     0,      2,      0,      0,      0,      2,      256,    0,      0,      0,      {},                                                     {}
3376,   CabecaoNeve,                    5,      800,        400,        80,     0,      2,      0,      0,      0,      2,      256,    0,      1,      0,      {},                                                     {}
3377,   MascaraRenaRodolf,              5,      1000,       500,        80,     0,      2,      0,      0,      0,      2,      256,    0,      1,      0,      {},                                                     {}
3378,   BoneLvl99,                      5,      1000000,    1000,       20,     0,      2,      0,      0,      0,      2,      256,    0,      99,     0,      {},                                                     {}
3381,   CoroaImperial,                  5,      800,        400,        20,     0,      2,      0,      0,      0,      2,      256,    0,      0,      0,      {},                                                     {}
//3382, RESERVED_Coroa2
//3383, RESERVED_Coroa3
//3384, RESERVED_Coroa4
//3385, RESERVED_Coroa5
//3386, RESERVED_Coroa6
//3387, RESERVED_Coroa7
//3388, RESERVED_Coroa8
//3389, RESERVED_Coroa9
3405,   OrelhasDeGato,                  5,      4000,       2000,       20,     0,      1,      0,      1,      0,      2,      256,    0,      0,      0,      {},                                                     {bonus bAgi, 3;}
3407,   GorroRoxoDeDormir,              5,      3000,       1500,       20,     0,      3,      0,      2,      0,      2,      256,    0,      0,      0,      {},                                                     {}
3437,   Aureola,                        5,      400,        200,        200,    0,      2,      0,      0,      0,      2,      256,    0,      0,      0,      {},                                                     {}
3446,   CoroadeThomasHawk,              5,      2000,       1000,       25,     0,      5,      0,      5,      0,      2,      256,    0,      0,      0,      {},                                                     {}
3972,   ElmoDoLordeDaGuerra1,           5,      30000,      3000,       900,    0,      19,     0,      0,      0,      2,      256,    0,      50,     0,      {},                                                     {}
3973,   ElmoDoLordeDaGuerra2,           5,      30000,      3000,       900,    0,      19,     0,      0,      0,      2,      256,    0,      50,     0,      {},                                                     {bonus bMaxHP, 20;}
3974,   ElmoDoLordeDaGuerra3,           5,      30000,      3000,       900,    0,      19,     0,      0,      0,      2,      256,    0,      50,     0,      {},                                                     {bonus bMaxHP, 30;}
3975,   ElmoDoLordeDaGuerra4,           5,      30000,      3000,       900,    0,      19,     0,      0,      0,      2,      256,    0,      50,     0,      {},                                                     {bonus bMaxHP, 40;}
3976,   ElmoDoLordeDaGuerra5,           5,      30000,      3000,       900,    0,      19,     0,      0,      0,      2,      256,    0,      50,     0,      {},                                                     {bonus bMaxHP, 50;}
3977,   ElmoDoLordeDaGuerra6,           5,      30000,      3000,       900,    0,      19,     0,      0,      0,      2,      256,    0,      50,     0,      {},                                                     {bonus bMaxHP, 60;}
3978,   ElmoDoLordeDaGuerra7,           5,      30000,      3000,       900,    0,      20,     0,      0,      0,      2,      256,    0,      50,     0,      {},                                                     {bonus bMaxHP, 100;}
3979,   ElmoDoLordeDaGuerra8,           5,      30000,      3000,       900,    0,      20,     0,      0,      0,      2,      256,    0,      50,     0,      {},                                                     {bonus bMaxHP, 150;}
3980,   ElmoDoLordeDaGuerra9,           5,      30000,      3000,       900,    0,      20,     0,      0,      0,      2,      256,    0,      50,     0,      {},                                                     {bonus bMaxHP, 200;}
3981,   ElmoDoCavaleiroAlado1,          5,      20000,      2000,       600,    0,      16,     0,      0,      0,      2,      256,    0,      40,     0,      {},                                                     {}
3982,   ElmoDoCavaleiroAlado2,          5,      20000,      2000,       600,    0,      16,     0,      0,      0,      2,      256,    0,      40,     0,      {},                                                     {bonus bMaxHP, 20;}
3983,   ElmoDoCavaleiroAlado3,          5,      20000,      2000,       600,    0,      16,     0,      0,      0,      2,      256,    0,      40,     0,      {},                                                     {bonus bMaxHP, 30;}
3984,   ElmoDoCavaleiroAlado4,          5,      20000,      2000,       600,    0,      16,     0,      0,      0,      2,      256,    0,      40,     0,      {},                                                     {bonus bMaxHP, 40;}
3985,   ElmoDoCavaleiroAlado5,          5,      20000,      2000,       600,    0,      16,     0,      0,      0,      2,      256,    0,      40,     0,      {},                                                     {bonus bMaxHP, 50;}
3986,   ElmoDoCavaleiroAlado6,          5,      20000,      2000,       600,    0,      16,     0,      0,      0,      2,      256,    0,      40,     0,      {},                                                     {bonus bMaxHP, 60;}
3987,   ElmoDoCavaleiroAlado7,          5,      20000,      2000,       600,    0,      17,     0,      0,      0,      2,      256,    0,      40,     0,      {},                                                     {bonus bMaxHP, 100;}
3988,   ElmoDoCavaleiroAlado8,          5,      20000,      2000,       600,    0,      17,     0,      0,      0,      2,      256,    0,      40,     0,      {},                                                     {bonus bMaxHP, 150;}
3989,   ElmoDoCavaleiroAlado9,          5,      20000,      2000,       600,    0,      17,     0,      0,      0,      2,      256,    0,      40,     0,      {},                                                     {bonus bMaxHP, 200;}
3990,   ElmoDasCruzadas1,               5,      25000,      2500,       1500,   0,      19,     0,      0,      0,      2,      256,    0,      45,     0,      {},                                                     {bonus bAgi, -1;}
3991,   ElmoDasCruzadas2,               5,      25000,      2500,       1500,   0,      19,     0,      0,      0,      2,      256,    0,      45,     0,      {},                                                     {bonus bAgi, -1; bonus bMaxHP, 20;}
3992,   ElmoDasCruzadas3,               5,      25000,      2500,       1500,   0,      19,     0,      0,      0,      2,      256,    0,      45,     0,      {},                                                     {bonus bAgi, -1; bonus bMaxHP, 30;}
3993,   ElmoDasCruzadas4,               5,      25000,      2500,       1500,   0,      19,     0,      0,      0,      2,      256,    0,      45,     0,      {},                                                     {bonus bAgi, -1; bonus bMaxHP, 40;}
3994,   ElmoDasCruzadas5,               5,      25000,      2500,       1500,   0,      19,     0,      0,      0,      2,      256,    0,      45,     0,      {},                                                     {bonus bAgi, -1; bonus bMaxHP, 50;}
3995,   ElmoDasCruzadas6,               5,      25000,      2500,       1500,   0,      19,     0,      0,      0,      2,      256,    0,      45,     0,      {},                                                     {bonus bAgi, -1; bonus bMaxHP, 60;}
3996,   ElmoDasCruzadas7,               5,      25000,      2500,       1500,   0,      20,     0,      0,      0,      2,      256,    0,      45,     0,      {},                                                     {bonus bAgi, -1; bonus bMaxHP, 100;}
3997,   ElmoDasCruzadas8,               5,      25000,      2500,       1500,   0,      20,     0,      0,      0,      2,      256,    0,      45,     0,      {},                                                     {bonus bAgi, -1; bonus bMaxHP, 150;}
3998,   ElmoDasCruzadas9,               5,      25000,      2500,       1500,   0,      20,     0,      0,      0,      2,      256,    0,      45,     0,      {},                                                     {bonus bAgi, -1; bonus bMaxHP, 200;}
3999,   ElmoDePaladino1,                5,      7000,       2000,       500,    0,      19,     0,      0,      0,      2,      256,    0,      70,     0,      {},                                                     {}
4000,   ElmoDePaladino2,                5,      7000,       2000,       500,    0,      19,     0,      0,      0,      2,      256,    0,      70,     0,      {},                                                     {bonus bMaxHP, 20;}
4001,   ElmoDePaladino3,                5,      7000,       2000,       500,    0,      19,     0,      0,      0,      2,      256,    0,      70,     0,      {},                                                     {bonus bMaxHP, 30;}
4002,   ElmoDePaladino4,                5,      7000,       2000,       500,    0,      19,     0,      0,      0,      2,      256,    0,      70,     0,      {},                                                     {bonus bMaxHP, 40;}
4003,   ElmoDePaladino5,                5,      7000,       2000,       500,    0,      19,     0,      0,      0,      2,      256,    0,      70,     0,      {},                                                     {bonus bMaxHP, 50;}
4004,   ElmoDePaladino6,                5,      7000,       2000,       500,    0,      19,     0,      0,      0,      2,      256,    0,      70,     0,      {},                                                     {bonus bMaxHP, 60;}
4005,   ElmoDePaladino7,                5,      7000,       2000,       500,    0,      20,     0,      0,      0,      2,      256,    0,      70,     0,      {},                                                     {bonus bMaxHP, 100;}
4006,   ElmoDePaladino8,                5,      7000,       2000,       500,    0,      20,     0,      0,      0,      2,      256,    0,      70,     0,      {},                                                     {bonus bMaxHP, 150;}
4007,   ElmoDePaladino9,                5,      7000,       2000,       500,    0,      20,     0,      0,      0,      2,      256,    0,      70,     0,      {},                                                     {bonus bMaxHP, 200;}
4008,   Elmodosoberano1,                5,      7000,       2000,       500,    0,      21,     0,      0,      0,      2,      256,    0,      70,     0,      {},                                                     {bonus bLuk, 1;}
4009,   Elmodosoberano2,                5,      7000,       2000,       500,    0,      21,     0,      0,      0,      2,      256,    0,      70,     0,      {},                                                     {bonus bLuk, 1; bonus bMaxHP, 20;}
4010,   Elmodosoberano3,                5,      7000,       2000,       500,    0,      21,     0,      0,      0,      2,      256,    0,      70,     0,      {},                                                     {bonus bLuk, 1; bonus bMaxHP, 30;}
4011,   Elmodosoberano4,                5,      7000,       2000,       500,    0,      21,     0,      0,      0,      2,      256,    0,      70,     0,      {},                                                     {bonus bLuk, 1; bonus bMaxHP, 40;}
4012,   Elmodosoberano5,                5,      7000,       2000,       500,    0,      21,     0,      0,      0,      2,      256,    0,      70,     0,      {},                                                     {bonus bLuk, 1; bonus bMaxHP, 50;}
4013,   Elmodosoberano6,                5,      7000,       2000,       500,    0,      21,     0,      0,      0,      2,      256,    0,      70,     0,      {},                                                     {bonus bLuk, 1; bonus bMaxHP, 60;}
4014,   Elmodosoberano7,                5,      7000,       2000,       500,    0,      22,     0,      0,      0,      2,      256,    0,      70,     0,      {},                                                     {bonus bLuk, 1; bonus bMaxHP, 100;}
4015,   Elmodosoberano8,                5,      7000,       2000,       500,    0,      22,     0,      0,      0,      2,      256,    0,      70,     0,      {},                                                     {bonus bLuk, 1; bonus bMaxHP, 150;}
4016,   Elmodosoberano9,                5,      7000,       2000,       500,    0,      22,     0,      0,      0,      2,      256,    0,      70,     0,      {},                                                     {bonus bLuk, 1; bonus bMaxHP, 200;}
4017,   ElmoDoDeserto1,                 5,      200000,     20000,      2000,   0,      21,     0,      0,      0,      2,      256,    0,      70,     0,      {},                                                     {bonus bAgi, 1;}
4018,   ElmoDoDeserto2,                 5,      200000,     20000,      2000,   0,      21,     0,      0,      0,      2,      256,    0,      70,     0,      {},                                                     {bonus bAgi, 1; bonus bMaxHP, 20;}
4019,   ElmoDoDeserto3,                 5,      200000,     20000,      2000,   0,      21,     0,      0,      0,      2,      256,    0,      70,     0,      {},                                                     {bonus bAgi, 1; bonus bMaxHP, 30;}
4020,   ElmoDoDeserto4,                 5,      200000,     20000,      2000,   0,      21,     0,      0,      0,      2,      256,    0,      70,     0,      {},                                                     {bonus bAgi, 1; bonus bMaxHP, 40;}
4021,   ElmoDoDeserto5,                 5,      200000,     20000,      2000,   0,      21,     0,      0,      0,      2,      256,    0,      70,     0,      {},                                                     {bonus bAgi, 1; bonus bMaxHP, 50;}
4022,   ElmoDoDeserto6,                 5,      200000,     20000,      2000,   0,      21,     0,      0,      0,      2,      256,    0,      70,     0,      {},                                                     {bonus bAgi, 1; bonus bMaxHP, 60;}
4023,   ElmoDoDeserto7,                 5,      200000,     20000,      2000,   0,      22,     0,      0,      0,      2,      256,    0,      70,     0,      {},                                                     {bonus bAgi, 1; bonus bMaxHP, 100;}
4024,   ElmoDoDeserto8,                 5,      200000,     20000,      2000,   0,      22,     0,      0,      0,      2,      256,    0,      70,     0,      {},                                                     {bonus bAgi, 1; bonus bMaxHP, 150;}
4025,   ElmoDoDeserto9,                 5,      200000,     20000,      2000,   0,      22,     0,      0,      0,      2,      256,    0,      70,     0,      {},                                                     {bonus bAgi, 1; bonus bMaxHP, 200;}
4026,   ElmoDoDragao1,                  5,      200000,     100000,     1000,   0,      21,     0,      50,     0,      2,      256,    0,      70,     0,      {},                                                     {bonus bMdef, 15;}
4027,   ElmoDoDragao2,                  5,      200000,     100000,     1000,   0,      21,     0,      50,     0,      2,      256,    0,      70,     0,      {},                                                     {bonus bMdef, 15; bonus bMaxHP, 20;}
4028,   ElmoDoDragao3,                  5,      200000,     100000,     1000,   0,      21,     0,      50,     0,      2,      256,    0,      70,     0,      {},                                                     {bonus bMdef, 15; bonus bMaxHP, 30;}
4029,   ElmoDoDragao4,                  5,      200000,     100000,     1000,   0,      21,     0,      50,     0,      2,      256,    0,      70,     0,      {},                                                     {bonus bMdef, 15; bonus bMaxHP, 40;}
4030,   ElmoDoDragao5,                  5,      200000,     100000,     1000,   0,      21,     0,      50,     0,      2,      256,    0,      70,     0,      {},                                                     {bonus bMdef, 15; bonus bMaxHP, 50;}
4031,   ElmoDoDragao6,                  5,      200000,     100000,     1000,   0,      21,     0,      50,     0,      2,      256,    0,      70,     0,      {},                                                     {bonus bMdef, 15; bonus bMaxHP, 60;}
4032,   ElmoDoDragao7,                  5,      200000,     100000,     1000,   0,      22,     0,      50,     0,      2,      256,    0,      70,     0,      {},                                                     {bonus bMdef, 15; bonus bMaxHP, 100;}
4033,   ElmoDoDragao8,                  5,      200000,     100000,     1000,   0,      22,     0,      50,     0,      2,      256,    0,      70,     0,      {},                                                     {bonus bMdef, 15; bonus bMaxHP, 150;}
4034,   ElmoDoDragao9,                  5,      200000,     100000,     1000,   0,      22,     0,      50,     0,      2,      256,    0,      70,     0,      {},                                                     {bonus bMdef, 15; bonus bMaxHP, 200;}
4035,   ElmoTaurus1,                    5,      200000,     20000,      2000,   0,      20,     0,      0,      0,      2,      256,    0,      70,     0,      {},                                                     {bonus bStr, 1;}
4036,   ElmoTaurus2,                    5,      200000,     20000,      2000,   0,      20,     0,      0,      0,      2,      256,    0,      70,     0,      {},                                                     {bonus bStr, 1; bonus bMaxHP, 20;}
4037,   ElmoTaurus3,                    5,      200000,     20000,      2000,   0,      20,     0,      0,      0,      2,      256,    0,      70,     0,      {},                                                     {bonus bStr, 1; bonus bMaxHP, 30;}
4038,   ElmoTaurus4,                    5,      200000,     20000,      2000,   0,      20,     0,      0,      0,      2,      256,    0,      70,     0,      {},                                                     {bonus bStr, 1; bonus bMaxHP, 40;}
4039,   ElmoTaurus5,                    5,      200000,     20000,      2000,   0,      20,     0,      0,      0,      2,      256,    0,      70,     0,      {},                                                     {bonus bStr, 1; bonus bMaxHP, 50;}
4040,   ElmoTaurus6,                    5,      200000,     20000,      2000,   0,      20,     0,      0,      0,      2,      256,    0,      70,     0,      {},                                                     {bonus bStr, 1; bonus bMaxHP, 60;}
4041,   ElmoTaurus7,                    5,      200000,     20000,      2000,   0,      20,     0,      0,      0,      2,      256,    0,      70,     0,      {},                                                     {bonus bStr, 1; bonus bMaxHP, 100;}
4042,   ElmoTaurus8,                    5,      200000,     20000,      2000,   0,      20,     0,      0,      0,      2,      256,    0,      70,     0,      {},                                                     {bonus bStr, 1; bonus bMaxHP, 150;}
4043,   ElmoTaurus9,                    5,      200000,     20000,      2000,   0,      20,     0,      0,      0,      2,      256,    0,      70,     0,      {},                                                     {bonus bStr, 1; bonus bMaxHP, 200;}
4047,   BoinaBranca,                    5,      2000,       1000,       60,     0,      3,      0,      0,      0,      2,      256,    0,      10,     0,      {},                                                     {}
4048,   BoinaVermelha,                  5,      2000,       1000,       60,     0,      3,      0,      0,      0,      2,      256,    0,      10,     0,      {},                                                     {}
4049,   BoinaVerde,                     5,      2000,       1000,       60,     0,      3,      0,      0,      0,      2,      256,    0,      10,     0,      {},                                                     {}
4050,   BoinaAzul,                      5,      2000,       1000,       60,     0,      3,      0,      0,      0,      2,      256,    0,      10,     0,      {},                                                     {}
4051,   BoinaAmarela,                   5,      2000,       1000,       60,     0,      3,      0,      0,      0,      2,      256,    0,      10,     0,      {},                                                     {}
4052,   BoinaRosa,                      5,      2000,       1000,       60,     0,      3,      0,      0,      0,      2,      256,    0,      10,     0,      {},                                                     {}
4057,   MascaraDeAguia,                 5,      140000,     75000,      60,     0,      7,      0,      0,      0,      2,      256,    0,      30,     0,      {},                                                     {}
