//ID,   Name,                   Jname,                  LV,     HP,     SP,     EXP,    JEXP,   Range1, ATK1,   ATK2,   DEF,    MDEF,   STR,    AGI,    VIT,    INT,    DEX,    LUK,    Range2, Range3, Scale,  Race,   Element,Mode,   Speed,  Adelay, Amotion,Dmotion,Drop1id,Drop1per,Drop2id,Drop2%, Drop3id,Drop3%, Drop4id,Drop4%, Drop5id,Drop5%, Drop6id,Drop6%, Drop7id,Drop7%, Drop8id,Drop8%, Item1,  Item2,  MEXP,   ExpPer, MVP1id, MVP1per,MVP2id, MVP2per,MVP3id, MVP3per,mutationcount,mutationstrength
1011,   trasgodefogo,           Trasgo de Fogo,             20,     220,        0,      0,      2,      1,      15,     20,     0,      5,      1,      1,      1,      0,      6,      30,     1,      1,      1,      3,      23,     129,    800,    1872,   672,    480,    505,    800,    501,    150,    518,    800,    502,    150,    521,    70,     522,    10,     701,    500,    0,      0,      0,      0,      0,      0,      0,      0,      0,      0,      0,      0,      2,      30
1017,   morcego,                Morcego,                    20,     150,        0,      0,      2,      1,      5,      25,     0,      5,      1,      1,      1,      1,      20,     25,     1,      1,      1,      3,      24,     129,    800,    1872,   672,    480,    505,    800,    501,    150,    518,    400,    533,    150,    753,    3000,   754,    2000,   0,      0,      0,      0,      0,      0,      0,      0,      0,      0,      0,      0,      0,      0,      2,      40
1018,   trasgoRosa,             Trasgo Rosa,                30,     500,        0,      0,      3,      2,      7,      15,     0,      5,      1,      1,      1,      0,      20,     25,     2,      2,      1,      3,      20,     129,    800,    1872,   672,    480,    614,    800,    751,    40,     0,      0,      0,      0,      0,      0,      0,      0,      0,      0,      0,      0,      0,      0,      0,      0,      0,      0,      0,      0,      0,      0,      3,      50
1019,   cogumelo,               Cogumelo,                   30,     300,        0,      0,      4,      1,      10,     13,     0,      5,      1,      1,      1,      0,      10,     10,     1,      1,      1,      3,      20,     129,    800,    1872,   672,    480,    567,    300,    501,    150,    518,    50,     613,    500,    0,      0,      0,      0,      0,      0,      0,      0,      0,      0,      0,      0,      0,      0,      0,      0,      0,      0,      3,      40
1020,   tufo,                   Tufo,                       30,     500,        0,      0,      3,      1,      6,      10,     1,      5,      1,      2,      1,      0,      20,     25,     1,      1,      1,      3,      20,     129,    800,    1600,   672,    480,    611,    800,    527,    150,    535,    400,    752,    20,     0,      0,      0,      0,      0,      0,      0,      0,      0,      0,      0,      0,      0,      0,      0,      0,      0,      0,      3,      40
1021,   cobradaCaverna,         Cobra da Caverna,           30,     1000,       0,      0,      5,      1,      20,     15,     1,      5,      10,     1,      1,      0,      5,      25,     1,      1,      1,      3,      25,     129,    800,    1872,   672,    480,    612,    800,    610,    40,     713,    500,    717,    400,    717,    400,    0,      0,      0,      0,      0,      0,      0,      0,      0,      0,      0,      0,      0,      0,      0,      0,      3,      50
1025,   troncoVivo,             Tronco Vivo,                30,     500,        0,      0,      30,     1,      7,      20,     50,     5,      1,      1,      1,      0,      20,     25,     1,      1,      1,      3,      22,     129,    800,    1872,   672,    480,    569,    2000,   740,    2500,   743,    3000,   3215,   500,    0,      0,      0,      0,      0,      0,      0,      0,      0,      0,      0,      0,      0,      0,      0,      0,      0,      0,      1,      50
1027,   tufodapascoa,           Tufo da Páscoa,            30,     500,        0,      0,      3,      1,      10,     12,     0,      5,      1,      1,      1,      1,      20,     25,     1,      1,      1,      3,      20,     129,    800,    1872,   672,    480,    1208,   2000,   1209,   2000,   1210,   2000,   1211,   1000,   1212,   1000,   1213,   200,    0,      0,      0,      0,      0,      0,      0,      0,      0,      0,      0,      0,      0,      0,      1,      40
1035,   bichodaSeda,            Bicho da Seda,              20,     1,          0,      0,      1,      1,      0,      0,      2,      10,     20,     11,     10,     10,     40,     10,     1,      1,      1,      0,      20,     129,    1300,   1100,   672,    480,    718,    5000,   0,      0,      0,      0,      0,      0,      0,      0,      0,      0,      0,      0,      0,      0,      0,      0,      0,      0,      0,      0,      0,      0,      0,      0,      2,      40
1050,   bichodeEvento,          Bicho Transgênico,          20,     1,          0,      0,      1,      1,      0,      0,      2,      10,     20,     11,     10,     10,     40,     10,     1,      1,      1,      0,      20,     129,    1300,   1100,   672,    480,    560,    7500,   625,    5,    734,      5,    654,     10,    562,     20,    718,   1500,      0,      0,      0,      0,      0,      0,      0,      0,      0,      0,      0,      0,      0,      0,      2,      40
1058,   trasgoGelo,             trasgoGelo,                 25,     330,        0,      0,      10,     1,      20,     25,     0,      5,      5,      5,      1,      0,      6,      30,     1,      1,      1,      3,      21,     133,    700,    1872,   672,    480,    505,    800,    501,    150,    518,    800,    502,    150,    521,    70,     522,    10,     1990,   500,    0,      0,      0,      0,      0,      0,      0,      0,      0,      0,      0,      0,      2,      30
1066,   morcegoVampiro,         morcegoVampiro,             30,     800,        0,      0,      200,    1,      15,     15,     0,      8,      8,      8,      1,      4,      20,     4,      6,      1,      1,      3,      24,     129,    800,    1872,   672,    480,    3348,   1000,   3340,   3000,   3341,   2000,   3302,   300,    0,      0,      0,      0,      0,      0,      0,      0,      0,      0,      0,      0,      0,      0,      0,      0,      0,      0,      2,      30
//1311, cachorro,               Cachorro,                   30,     10,         0,      0,      1,      1,      15,     25,     101,    5,      1,      1,      1,      1,      20,     25,     1,      1,      1,      3,      22,     131,    800,    1872,   672,    480,    775,    300,    0,      0,      0,      0,      0,      0,      0,      0,      0,      0,      0,      0,      0,      0,      0,      0,      0,      0,      0,      0,      0,      0,      0,      0,      1,      50
1312,   trasgoRoxo,             Trasgo Roxo,                30,     500,        0,      0,      3,      2,      7,      15,     0,      5,      1,      1,      1,      0,      20,     25,     2,      2,      1,      3,      20,     129,    800,    1872,   672,    480,    3069,   800,    0,      0,      0,      0,      0,      0,      0,      0,      0,      0,      0,      0,      0,      0,      0,      0,      0,      0,      0,      0,      0,      0,      0,      0,      3,      50
1326,   jazidaChumbo,           Jazida,                     20,     3,          0,      0,      1,      1,      0,      0,      0,      0,      1,      1,      1,      1,      1,      1,      1,      1,      1,      3,      22,     64,     800,    800,    672,    480, 3136,   9500,      0,      0,      0,      0,      0,      0,      0,      0,      0,      0,      0,      0,      0,      0,      0,      0,      0,      0,      0,      0,      0,      0,      0,      0,      1,      50
1327,   jazidaEstanho,          Jazida,                     30,     4,          0,      0,      1,      1,      0,      0,      0,      0,      1,      1,      1,      1,      1,      1,      1,      1,      1,      3,      22,     64,     800,    800,    672,    480, 3135,   9500,      0,      0,      0,      0,      0,      0,      0,      0,      0,      0,      0,      0,      0,      0,      0,      0,      0,      0,      0,      0,      0,      0,      0,      0,      1,      50
1341,   ramabatata,             Rama de Batata,             25,     250,        0,      0,      16,     1,      30,     35,     10,     10,     25,     20,     25,     1,      25,     20,     1,      1,      1,      0,      21,     139,    1200,   1872,   672,    480,    505,    500,    0,      0,      0,      0,      0,      0,      0,      0,      0,      0,      0,      0,      0,      0,      0,      0,      0,      0,      0,      0,      0,      0,      0,      0,      2,      30
1342,   tartarugaEspinhosa,     Tartaruga Espinhosa,        30,     500,        0,      0,      30,     1,      15,     25,     50,     5,      20,     10,     50,     1,      30,     25,     1,      1,      1,      3,      22,     129,    1500,   1872,   672,    480,    3296,   2000,   3296,   1000,   3293,   1000,   0,      0,      0,      0,      0,      0,      0,      0,      0,      0,      0,      0,      0,      0,      0,      0,      0,      0,      0,      0,      1,      50
1365,   lobobranco,             Lobo Branco,                30,     300,        0,      0,      4,      1,      30,     60,     0,      5,      8,      8,      12,     0,      15,     8,      1,      1,      1,      3,      25,     129,    1000,   1872,   672,    480,    3420,   500,    3421,   700,    0,      0,      0,      0,      0,      0,      0,      0,      0,      0,      0,      0,      0,      0,      0,      0,      0,      0,      0,      0,      0,      0,      0,      0
1375,   dodo,                   Dodô,                      30,     300,        0,      0,      4,      1,      30,     60,     0,      5,      8,      8,      12,     0,      15,     8,      1,      1,      1,      3,      25,     129,    1000,   1872,   672,    480,    3420,   500,    3421,   700,    0,      0,      0,      0,      0,      0,      0,      0,      0,      0,      0,      0,      0,      0,      0,      0,      0,      0,      0,      0,      0,      0,      0,      0
//1386, trasgodefogo2,          Trasgo de Fogo Mutante (M.Boss), 90,     15000,      0,      10000,  90,     1,      70,     300,    12,     10,     60,     35,     50,     8,      90,     55,     1,      1,      1,      0,      29,     171,    340,    1800,   0,      0,      0,      1000,   0,      0,      0,      0,      0,      0,      0,      0,      0,      0,      0,      0,      0,      0,      0,      0,      0,      0,      0,      0,      0,      0,      0,      0,      2,      30
