//ID,   Name,                   Jname,                  LV,     HP,     SP,     EXP,    JEXP,   Range1, ATK1,   ATK2,   DEF,    MDEF,   STR,    AGI,    VIT,    INT,    DEX,    LUK,    Range2, Range3, Scale,  Race,   Element,Mode,   Speed,  Adelay, Amotion,Dmotion,Drop1id,Drop1per,Drop2id,Drop2%, Drop3id,Drop3%, Drop4id,Drop4%, Drop5id,Drop5%, Drop6id,Drop6%, Drop7id,Drop7%, Drop8id,Drop8%, Item1,  Item2,  MEXP,   ExpPer, MVP1id, MVP1per,MVP2id, MVP2per,MVP3id, MVP3per,mutationcount,mutationstrength
1004,   escorpiaoVermelho,      Escorpião Vermelho,        90,     550,        0,      0,      145,    1,      50,     55,     4,      6,      8,      8,      10,     10,     30,     10,     1,      1,      1,      0,      25,     129,    1000,   1872,   672,    480,    517,    2000,   509,    100,    518,    500,    1200,   10,     1199,   760,    1201,   540,    524,    25,     0,      0,      0,      0,      0,      0,      0,      0,      0,      0,      0,      0,      1,      50
1006,   vermegigante,           Verme Gigante,              80,     500,        0,      0,      16,     2,      45,     75,     2,      7,      8,      6,      2,      1,      22,     1,      2,      2,      1,      0,      44,     129,    2000,   1872,   672,    480,    1199,   900,    519,    100,    518,    750,    501,    5000,   502,    3000,   503,    11,     526,    20,     0,      0,      0,      0,      0,      0,      0,      0,      0,      0,      0,      0,      1,      25
1028,   Mouboo,                 Mouboo,                     85,     1200,       0,      0,      40,     2,      30,     75,     65,     5,      15,     5,      15,     0,      40,     10,     2,      2,      1,      3,      20,     129,    600,    1872,   672,    480,    660,    200,    660,    100,    541,    750,    660,    10,     0,      0,      0,      0,      0,      0,      0,      0,      0,      0,      0,      0,      0,      0,      0,      0,      0,      0,      1,      30
1043,   esqueletoguerreiro,     Esqueleto Guerreiro,        90,     6800,       0,      0,      90,     1,      51,     284,    12,     10,     35,     18,     3,      8,      71,     65,     1,      1,      1,      0,      29,     175,    340,    1800,   672,    950,    775,    1000,   776,    300,    631,    1000,   0,      0,      0,      0,      0,      0,      0,      0,      0,      0,      0,      0,      0,      0,      0,      0,      0,      0,      0,      0,      2,      30
1044,   ladyesqueleto,          Lady Esqueleto,             90,     5500,       0,      0,      90,     2,      73,     146,    31,     8,      20,     25,     15,     8,      43,     48,     1,      1,      1,      0,      29,     175,    650,    750,    672,    700,    775,    1000,   776,    300,    631,    1000,   666,    10,     0,      0,      0,      0,      0,      0,      0,      0,      0,      0,      0,      0,      0,      0,      0,      0,      0,      0,      2,      30
1047,   EspectroCalafrio,       Espectro Calafrio,          90,     9000,       0,      0,      140,    3,      110,    150,    0,      20,     35,     0,      15,     15,     25,     50,     1,      1,      1,      0,      27,     137,    330,    740,    672,    400,    774,    500,    703,    150,    703,    120,    0,      0,      0,      0,      0,      0,      0,      0,      0,      0,      0,      0,      0,      0,      0,      0,      0,      0,      0,      0,      2,      20
1332,   jazidaTitanio,          Jazida,                     80,     6,          0,      0,      1,      1,      0,      0,      0,      0,      1,      1,      1,      1,      1,      1,      1,      1,      1,      3,      22,     64,     800,    800,    672,    480,    0,      0,      0,      0,      0,      0,      0,      0,      0,      0,      0,      0,      0,      0,      0,      0,      0,      0,      0,      0,      0,      0,      0,      0,      0,      0,      1,      50
1333,   jazidaDiamante,         Jazida,                     90,     7,          0,      0,      1,      1,      0,      0,      0,      0,      1,      1,      1,      1,      1,      1,      1,      1,      1,      3,      22,     64,     800,    800,    672,    480,    0,      0,      0,      0,      0,      0,      0,      0,      0,      0,      0,      0,      0,      0,      0,      0,      0,      0,      0,      0,      0,      0,      0,      0,      0,      0,      1,      50
1334,   CapitaoDaGuarda,        Capitão da Guarda,         80,     1200,       0,      0,      130,    2,      110,    190,    6,      0,      1,      40,     15,     10,     40,     1,      1,      1,      1,      1,      22,     137,    500,    1600,   672,    480,    3052,   30,     0,      0,      0,      0,      0,      0,      0,      0,      0,      0,      0,      0,      0,      0,      0,      0,      0,      0,      0,      0,      0,      0,      0,      0,      1,      60
1336,   Tarantula,              Tarântula (BOSS),          99,     20000,      3000,  15000,   3000,   2,      400,    550,    40,     40,     60,     30,     45,     15,     50,     10,     1,      1,      1,      0,      45,     957,    250,    1500,   672,    480,    533,    250,    676,    150,    3146,   5000,3061,   4000,   3060,   6000,   1046,    500,     641,    1000,      0,      0,      0,      0,      0,      0,      0,      0,      0,      0,      0,      0,      2,      20
1349,   aranhaMarrom,           Aranha Marrom,              80,     1000,       600,    0,      350,    1,      110,    115,    25,     20,     30,     15,     30,     12,     40,     10,     1,      1,      1,      0,      25,     133,    1000,   1500,   672,    480,    676,    150,    3146,   5000,   3303,   200,    0,      0,      0,      0,      0,      0,      0,      0,      0,      0,      0,      0,      0,      0,      0,      0,      0,      0,      0,      0,      2,      40
1350,   aranhaRainhaMarrom,     Aranha Rainha Marrom,       99,     5000,       3000,   0,      3000,   2,      100,    250,    40,     40,     40,     20,     40,     15,     50,     10,     1,      1,      1,      0,      45,     949,    400,    1500,   672,    480,    676,    150,    3146,   5000,   3304,   100,    0,      0,      0,      0,      0,      0,      0,      0,      0,      0,      0,      0,      0,      0,      0,      0,      0,      0,      0,      0,      2,      20
//1387, cogumelo2,              Cogumelo Mutante (M.Boss),  90,     15000,      0,      10000,  90,     1,      70,     300,    12,     10,     60,     35,     50,     8,      90,     55,     1,      1,      1,      0,      29,     171,    340,    1800,   0,      0,      0,      0,      0,      0,      0,      0,      0,      0,      0,      0,      0,      0,      0,      0,      0,      0,      0,      0,      0,      0,      0,      0,      0,      0,      0,      0,      2,      30
1389,   foice,                  Foice Possuida,             90,     15000,      0,      10000,  90,     2,     370,     450,    20,     10,     60,     35,     50,     8,      90,     55,     1,      1,      1,      0,      29,     171,    340,    1800, 530,   2100,    524,   1100,    541,  7000,   3020,  3000,   3060,    8000,   3061,   2000,  1046,    400,      0,      0,      0,      0,      0,      0,      0,      0,      0,      0,      0,      0,      0,      0,      2,      30
1389,   foice,                  Foice Possuida,             90,     15000,      0,      10000,  90,     1,      70,     300,    12,     10,     60,     35,     50,     8,      90,     55,     1,      1,      1,      0,      29,     171,    340,    1800,   0,      0,      0,      0,      0,      0,      0,      0,      0,      0,      0,      0,      0,      0,      0,      0,      0,      0,      0,      0,      0,      0,      0,      0,      0,      0,      0,      0,      2,      30
1392,   lobodoplanalto,         Lobo do Planalto Nevado,    90,     6800,       0,      0,      90,     1,      51,     284,    12,     10,     35,     18,     3,      8,      71,     65,     1,      1,      1,      0,      29,     175,    340,    1800,   0,      0,      0,      0,      0,      0,      0,      0,      0,      0,      0,      0,      0,      0,      0,      0,      0,      0,      0,      0,      0,      0,      0,      0,      0,      0,      0,      0,      2,      30
